{
  "name": "Africana Studies",
  "degree_type": "4 Year Plan",
  "degree_awarded": "BA",
  "notes": [
    {
      "note": "Keep in mind that minimum grades on road map are for individual coursework only.  Students must maintain a minimum of a 2.0 cumulative grade point average for admission to and graduation from the College of Arts and Sciences.  Minimums listed for the individual courses do NOT meet the cumulative minimum."
    }
  ],
  "terms": [
    {
      "requirements": [
        {
          "name": "AFST 103: Foundation of Africana Studies",
          "crucial": false,
          "min_grade": "C",
          "credits": 3,
          "courses": [
            {
              "number": "AFST 103",
              "title": "Fdns of Africana Stu"
            }
          ]
        },
        {
          "name": "ENGL 110: Accelerated Composition or ENGL 111: Composition I and ENGL 112: Composition II or ENGL 113: Enhanced Composition",
          "crucial": false,
          "min_grade": "C",
          "credits": 3,
          "courses": [

          ]
        },
        {
          "name": "Freshman Academic Choice",
          "crucial": false,
          "min_grade": "D-",
          "credits": 3,
          "courses": [

          ]
        },
        {
          "name": "Swahili or Arabic Language Course",
          "crucial": false,
          "min_grade": "C",
          "credits": 3,
          "courses": [

          ]
        },
        {
          "name": "MATH",
          "crucial": false,
          "min_grade": "",
          "credits": 3,
          "courses": [

          ]
        }
      ]
    },
    {
      "requirements": [
        {
          "name": "AFST 250: Black Woman",
          "crucial": false,
          "min_grade": "C",
          "credits": 3,
          "courses": [
            {
              "number": "AFST 250",
              "title": "Black Woman"
            }
          ]
        },
        {
          "name": "AFST 299: Black Leader in the U.S. or AFST 309: Black Politics",
          "crucial": false,
          "min_grade": "C",
          "credits": 3,
          "courses": [
            {
              "number": "AFST 299",
              "title": "Black Leaders in US"
            },
            {
              "number": "AFST 309",
              "title": "Black Politics"
            }
          ]
        },
        {
          "name": "ENGL 120: Composition III",
          "crucial": false,
          "min_grade": "C",
          "credits": 3,
          "courses": [

          ]
        },
        {
          "name": "Humanities",
          "crucial": false,
          "min_grade": "C",
          "credits": 3,
          "courses": [

          ]
        },
        {
          "name": "Minor or 2nd Major Requirement",
          "crucial": false,
          "min_grade": "C",
          "credits": 3,
          "courses": [

          ]
        }
      ]
    },
    {
      "requirements": [
        {
          "name": "AFST 284: African-American History I",
          "crucial": false,
          "min_grade": "C",
          "credits": 3,
          "courses": [
            {
              "number": "AFST 284",
              "title": "African Amer Hist I"
            }
          ]
        },
        {
          "name": "AFST 329: Introduction to African Politics",
          "crucial": false,
          "min_grade": "",
          "credits": 3,
          "courses": [
            {
              "number": "AFST 329",
              "title": "Intro African Politics"
            }
          ]
        },
        {
          "name": "CJ 130 or PHIL 156 or ENGL 219 or ENGL 220",
          "crucial": false,
          "min_grade": "",
          "credits": 3,
          "courses": [

          ]
        },
        {
          "name": "Minor or 2nd Major Requirement",
          "crucial": false,
          "min_grade": "C",
          "credits": 3,
          "courses": [

          ]
        },
        {
          "name": "Humanities",
          "crucial": false,
          "min_grade": "C",
          "credits": 3,
          "courses": [

          ]
        }
      ]
    },
    {
      "requirements": [
        {
          "name": "AFST 285: African-American History II",
          "crucial": false,
          "min_grade": "",
          "credits": 3,
          "courses": [
            {
              "number": "AFST 285",
              "title": "African Amer Hist II"
            }
          ]
        },
        {
          "name": "AFST 333: Black Political Theory",
          "crucial": false,
          "min_grade": "C",
          "credits": 3,
          "courses": [
            {
              "number": "AFST 333",
              "title": "Black Pol Theory"
            }
          ]
        },
        {
          "name": "Minor or 2nd Major Requirement",
          "crucial": false,
          "min_grade": "C",
          "credits": 3,
          "courses": [

          ]
        },
        {
          "name": "Social Behavioral Science",
          "crucial": false,
          "min_grade": "C",
          "credits": 3,
          "courses": [

          ]
        },
        {
          "name": "Fine Arts",
          "crucial": false,
          "min_grade": "C",
          "credits": 3,
          "courses": [

          ]
        }
      ]
    },
    {
      "requirements": [
        {
          "name": "AFST 396: Emancipation and Equality or HIST 474: Slavery and Race Relations in the Americas",
          "crucial": false,
          "min_grade": "C",
          "credits": 3,
          "courses": [
            {
              "number": "AFST 396",
              "title": "Emancipatn & Equality"
            }
          ]
        },
        {
          "name": "WMST 234: or WMST 331: Transnational Feminisms",
          "crucial": false,
          "min_grade": "C",
          "credits": 3,
          "courses": [
            {
              "number": "WMST 331",
              "title": "Third World Women"
            }
          ]
        },
        {
          "name": "Social Behavioral Science",
          "crucial": false,
          "min_grade": "C",
          "credits": 3,
          "courses": [

          ]
        },
        {
          "name": "Minor or 2nd Major Requirement",
          "crucial": false,
          "min_grade": "C",
          "credits": 3,
          "courses": [

          ]
        },
        {
          "name": "Upper Division Elective",
          "crucial": false,
          "min_grade": "D-",
          "credits": 3,
          "courses": [

          ]
        }
      ]
    },
    {
      "requirements": [
        {
          "name": "AFST Literature or Cultural Course",
          "crucial": false,
          "min_grade": "C",
          "credits": 3,
          "courses": [

          ]
        },
        {
          "name": "Physical and Natural Science",
          "crucial": false,
          "min_grade": "C",
          "credits": 4,
          "courses": [

          ]
        },
        {
          "name": "Minor or 2nd Major Requirement",
          "crucial": false,
          "min_grade": "C",
          "credits": 3,
          "courses": [

          ]
        },
        {
          "name": "Upper Division Elective",
          "crucial": false,
          "min_grade": "D-",
          "credits": 3,
          "courses": [

          ]
        },
        {
          "name": "Elective Any Level",
          "crucial": false,
          "min_grade": "D-",
          "credits": 2,
          "courses": [

          ]
        }
      ]
    },
    {
      "requirements": [
        {
          "name": "AFST Literature or Cultural Course",
          "crucial": false,
          "min_grade": "C",
          "credits": 3,
          "courses": [

          ]
        },
        {
          "name": "Minor or 2nd Major Requirement",
          "crucial": false,
          "min_grade": "C",
          "credits": 3,
          "courses": [

          ]
        },
        {
          "name": "Upper Division Elective",
          "crucial": false,
          "min_grade": "D-",
          "credits": 3,
          "courses": [

          ]
        },
        {
          "name": "Upper Division Elective",
          "crucial": false,
          "min_grade": "D-",
          "credits": 3,
          "courses": [

          ]
        },
        {
          "name": "Upper Division Elective",
          "crucial": false,
          "min_grade": "D-",
          "credits": 3,
          "courses": [

          ]
        }
      ]
    },
    {
      "requirements": [
        {
          "name": "AFST 388: Blacks in Latin America I",
          "crucial": false,
          "min_grade": "C",
          "credits": 3,
          "courses": [
            {
              "number": "AFST 388",
              "title": "Blacks in Lat Amer"
            }
          ]
        },
        {
          "name": "Minor or 2nd Major Requirement",
          "crucial": false,
          "min_grade": "C",
          "credits": 3,
          "courses": [

          ]
        },
        {
          "name": "Minor or 2nd Major Requirement",
          "crucial": false,
          "min_grade": "C",
          "credits": 3,
          "courses": [

          ]
        },
        {
          "name": "Upper Division Elective",
          "crucial": false,
          "min_grade": "D-",
          "credits": 3,
          "courses": [

          ]
        },
        {
          "name": "Upper Division Elective",
          "crucial": false,
          "min_grade": "D-",
          "credits": 3,
          "courses": [

          ]
        }
      ]
    }
  ]
}