{
  "name": "Classical Studies",
  "degree_type": "Language Concentration",
  "degree_awarded": "BA",
  "notes": [
    {
      "note": "Keep in mind that minimum grades on road map are for individual coursework only.  Students must maintain a minimum of a 2.0 cumulative grade point average for admission to and graduation from the College of Arts and Sciences.  Minimums listed for the individual courses do NOT meet the cumulative minimum."
    }
  ],
  "terms": [
    {
      "requirements": [
        {
          "name": "LATN 101: Elementary Latin I or GREK 101: Elementary Greek I",
          "crucial": false,
          "min_grade": "C",
          "credits": 3,
          "courses": [
            {
              "number": "GREK 101",
              "title": "Beginning Greek I"
            },
            {
              "number": "LATN 101",
              "title": "Elementary Latin I"
            }
          ]
        },
        {
          "name": "ENGL 110: Accelerated Composition or ENGL 111: Composition I and ENGL 112: Composition II or ENGL 113: Enhanced Composition",
          "crucial": false,
          "min_grade": "C",
          "credits": 3,
          "courses": [

          ]
        },
        {
          "name": "Freshman Academic Choice",
          "crucial": false,
          "min_grade": "D-",
          "credits": 3,
          "courses": [

          ]
        },
        {
          "name": "MATH",
          "crucial": false,
          "min_grade": "C",
          "credits": 3,
          "courses": [

          ]
        },
        {
          "name": "Humanities",
          "crucial": false,
          "min_grade": "C",
          "credits": 3,
          "courses": [

          ]
        }
      ]
    },
    {
      "requirements": [
        {
          "name": "LATN 102: Elementary Latin II or GREK 102: Elementary Greek II",
          "crucial": false,
          "min_grade": "C",
          "credits": 3,
          "courses": [
            {
              "number": "GREK 102",
              "title": "Beginning Greek II"
            },
            {
              "number": "LATN 102",
              "title": "Elementary Latin II"
            }
          ]
        },
        {
          "name": "ENGL 120: Composition III",
          "crucial": false,
          "min_grade": "C",
          "credits": 3,
          "courses": [

          ]
        },
        {
          "name": "Minor or 2nd Major Requirement",
          "crucial": false,
          "min_grade": "C",
          "credits": 3,
          "courses": [

          ]
        },
        {
          "name": "Physical and Natural Science",
          "crucial": false,
          "min_grade": "C",
          "credits": 4,
          "courses": [

          ]
        },
        {
          "name": "Social Behavioral Science",
          "crucial": false,
          "min_grade": "C",
          "credits": 3,
          "courses": [

          ]
        }
      ]
    },
    {
      "requirements": [
        {
          "name": "LATN 201: Intermediate Latin I or GREK 201: Intermediate Greek I",
          "crucial": false,
          "min_grade": "C",
          "credits": 3,
          "courses": [
            {
              "number": "GREK 201",
              "title": "Intermediate Greek I"
            },
            {
              "number": "LATN 201",
              "title": "Intermediate Latin I"
            }
          ]
        },
        {
          "name": "LATN 101: Elementary Latin I or GREK 101: Elementary Greek I (Depending on Latin or Greek Concentration)",
          "crucial": false,
          "min_grade": "C",
          "credits": 3,
          "courses": [
            {
              "number": "GREK 101",
              "title": "Beginning Greek I"
            },
            {
              "number": "LATN 101",
              "title": "Elementary Latin I"
            }
          ]
        },
        {
          "name": "Minor or 2nd Major Requirement",
          "crucial": false,
          "min_grade": "C",
          "credits": 3,
          "courses": [

          ]
        },
        {
          "name": "CJ 130 or PHIL 156 or ENGL 219 or ENGL 220",
          "crucial": false,
          "min_grade": "C",
          "credits": 3,
          "courses": [

          ]
        },
        {
          "name": "Social Behavioral Science",
          "crucial": false,
          "min_grade": "C",
          "credits": 3,
          "courses": [

          ]
        }
      ]
    },
    {
      "requirements": [
        {
          "name": "LATN 202: Intermediate Latin II or GREK 202: Intermediate Greek II",
          "crucial": false,
          "min_grade": "C",
          "credits": 3,
          "courses": [
            {
              "number": "GREK 202",
              "title": "Intermediate Greek II"
            },
            {
              "number": "LATN 202",
              "title": "Intermediate Latin II"
            }
          ]
        },
        {
          "name": "LATN 102: Elementary Latin II or GREK 102: Elementary Greek II (Depending on Latin or Greek Concentration)",
          "crucial": false,
          "min_grade": "C",
          "credits": 3,
          "courses": [
            {
              "number": "GREK 102",
              "title": "Beginning Greek II"
            },
            {
              "number": "LATN 102",
              "title": "Elementary Latin II"
            }
          ]
        },
        {
          "name": "Classical Studies Course (CLST) above 200 level",
          "crucial": false,
          "min_grade": "C",
          "credits": 3,
          "courses": [

          ]
        },
        {
          "name": "Minor or 2nd Major Requirement",
          "crucial": false,
          "min_grade": "C",
          "credits": 3,
          "courses": [

          ]
        },
        {
          "name": "Physical and Natural Science",
          "crucial": false,
          "min_grade": "C",
          "credits": 4,
          "courses": [

          ]
        }
      ]
    },
    {
      "requirements": [
        {
          "name": "LATN 303: Advanced Latin I or GREK 301: Advanced Greek I",
          "crucial": false,
          "min_grade": "C",
          "credits": 3,
          "courses": [
            {
              "number": "GREK 301",
              "title": "Advanced Greek I"
            },
            {
              "number": "LATN 303",
              "title": "Advanced Latin I"
            }
          ]
        },
        {
          "name": "LATN 201: Intermediate Latin I or GREK 201: Intermediate Greek I (Depending on Latin or Greek Concentration)",
          "crucial": false,
          "min_grade": "C",
          "credits": 3,
          "courses": [
            {
              "number": "GREK 201",
              "title": "Intermediate Greek I"
            },
            {
              "number": "LATN 201",
              "title": "Intermediate Latin I"
            }
          ]
        },
        {
          "name": "Minor or 2nd Major Requirement",
          "crucial": false,
          "min_grade": "C",
          "credits": 6,
          "courses": [

          ]
        },
        {
          "name": "Upper Division Elective",
          "crucial": false,
          "min_grade": "D-",
          "credits": 3,
          "courses": [

          ]
        }
      ]
    },
    {
      "requirements": [
        {
          "name": "LATN 304: Advanced Latin II or GREK 302: Advanced Greek II",
          "crucial": false,
          "min_grade": "C",
          "credits": 3,
          "courses": [
            {
              "number": "GREK 302",
              "title": "Advanced Greek II"
            },
            {
              "number": "LATN 304",
              "title": "Advanced Latin II"
            }
          ]
        },
        {
          "name": "LATN 202: Intermediate Latin II or GREK 202: Intermediate Greek II (Depending on Latin or Greek Concentration)",
          "crucial": false,
          "min_grade": "C",
          "credits": 3,
          "courses": [
            {
              "number": "GREK 202",
              "title": "Intermediate Greek II"
            },
            {
              "number": "LATN 202",
              "title": "Intermediate Latin II"
            }
          ]
        },
        {
          "name": "Minor or 2nd Major Requirement",
          "crucial": false,
          "min_grade": "C",
          "credits": 6,
          "courses": [

          ]
        },
        {
          "name": "Humanities",
          "crucial": false,
          "min_grade": "C",
          "credits": 3,
          "courses": [

          ]
        }
      ]
    },
    {
      "requirements": [
        {
          "name": "LATN 303: Advanced Latin I or GREK 301: Advanced Greek I (Depending on Latin or Greek Concentration)",
          "crucial": false,
          "min_grade": "C",
          "credits": 3,
          "courses": [
            {
              "number": "GREK 301",
              "title": "Advanced Greek I"
            },
            {
              "number": "LATN 303",
              "title": "Advanced Latin I"
            }
          ]
        },
        {
          "name": "Approved elective for major",
          "crucial": false,
          "min_grade": "C",
          "credits": 3,
          "courses": [

          ]
        },
        {
          "name": "Fine Arts",
          "crucial": false,
          "min_grade": "C",
          "credits": 3,
          "courses": [

          ]
        },
        {
          "name": "2nd Major or Upper Division Elective",
          "crucial": false,
          "min_grade": "C",
          "credits": 6,
          "courses": [

          ]
        }
      ]
    },
    {
      "requirements": [
        {
          "name": "Classical Studies Course above 200 level",
          "crucial": false,
          "min_grade": "C",
          "credits": 3,
          "courses": [

          ]
        },
        {
          "name": "Minor or 2nd Major Requirement",
          "crucial": false,
          "min_grade": "C",
          "credits": 3,
          "courses": [

          ]
        },
        {
          "name": "2nd Major or Upper Division Elective",
          "crucial": false,
          "min_grade": "C",
          "credits": 7,
          "courses": [

          ]
        }
      ]
    }
  ]
}