{
  "name": "Computer Engineering",
  "degree_type": "Starting Math:150",
  "degree_awarded": "BS",
  "notes": [
    {
      "note": "Each candidate for a degree must have at least a 2.00 GPA on work taken at the University of New Mexico which is counted toward the degree and at least a 2.00 GPA on all work taken at the University of New Mexico. In order to count toward graduation, each course required in a School of Engineering curriculum must be completed with a grade of C- or better. Courses used to fulfill the University of New Mexico core curriculum require a grade of C or better. Departments may have more restrictive academic requirements which also must be met."
    },
    {
      "note": ""
    }
  ],
  "terms": [
    {
      "requirements": [
        {
          "name": "ENGL 110: Composition 1: Exposition",
          "crucial": false,
          "min_grade": "C",
          "credits": 3,
          "courses": [

          ]
        },
        {
          "name": "MATH 150: Pre-Calculus Mathematics",
          "crucial": true,
          "min_grade": "C",
          "credits": 3,
          "courses": [
            {
              "number": "MATH 150",
              "title": "Pre-Calculus Math"
            }
          ]
        },
        {
          "name": "MATH 123: Trigonometry",
          "crucial": true,
          "min_grade": "C",
          "credits": 3,
          "courses": [
            {
              "number": "MATH 123",
              "title": "Trigonometry"
            }
          ]
        },
        {
          "name": "ECE 101: Introduction to Electrical & Computer Engineering",
          "crucial": false,
          "min_grade": "C",
          "credits": 1,
          "courses": [
            {
              "number": "ECE 101",
              "title": "Intro to Elect & Computer Eng"
            }
          ]
        },
        {
          "name": "ECE 131: Introduction to Programming",
          "crucial": false,
          "min_grade": "C",
          "credits": 3,
          "courses": [
            {
              "number": "ECE 131",
              "title": "Programming Fundamentals"
            }
          ]
        }
      ]
    },
    {
      "requirements": [
        {
          "name": "ENGL 120: Composition III",
          "crucial": false,
          "min_grade": "C",
          "credits": 3,
          "courses": [

          ]
        },
        {
          "name": "PHYC 160: General Physics I",
          "crucial": true,
          "min_grade": "C",
          "credits": 3,
          "courses": [
            {
              "number": "PHYC 160",
              "title": "General Physics"
            }
          ]
        },
        {
          "name": "MATH 162: Calculus I",
          "crucial": true,
          "min_grade": "C",
          "credits": 4,
          "courses": [
            {
              "number": "MATH 162",
              "title": "Calculus I"
            }
          ]
        },
        {
          "name": "ECE 231: Intermediate Programming",
          "crucial": false,
          "min_grade": "C",
          "credits": 3,
          "courses": [
            {
              "number": "ECE 231",
              "title": "Intermediate Programming"
            }
          ]
        },
        {
          "name": "ECE 238L: Computer Logic Design",
          "crucial": false,
          "min_grade": "C",
          "credits": 4,
          "courses": [
            {
              "number": "ECE 238L",
              "title": "Computer Logic Design"
            }
          ]
        }
      ]
    },
    {
      "requirements": [
        {
          "name": "MATH 163: Calculus II",
          "crucial": true,
          "min_grade": "C",
          "credits": 4,
          "courses": [
            {
              "number": "MATH 163",
              "title": "Calculus II"
            }
          ]
        }
      ]
    },
    {
      "requirements": [
        {
          "name": "ECE 203: Circuit Analysis I",
          "crucial": true,
          "min_grade": "C",
          "credits": 3,
          "courses": [
            {
              "number": "ECE 203",
              "title": "Circuit Analysis I"
            }
          ]
        },
        {
          "name": "PHYC 161: General Physics II",
          "crucial": true,
          "min_grade": "C",
          "credits": 3,
          "courses": [
            {
              "number": "PHYC 161",
              "title": "General Physics"
            }
          ]
        },
        {
          "name": "PHYC 161L: General Physics II Lab",
          "crucial": false,
          "min_grade": "C",
          "credits": 1,
          "courses": [
            {
              "number": "PHYC 161L",
              "title": "General Physics Lab"
            }
          ]
        },
        {
          "name": "Basic Science with Lab",
          "crucial": false,
          "min_grade": "C",
          "credits": 4,
          "courses": [

          ]
        },
        {
          "name": "ENGL 219: Technical Writing",
          "crucial": false,
          "min_grade": "C",
          "credits": 3,
          "courses": [
            {
              "number": "ENGL 219",
              "title": "Tech & Professional Writing"
            }
          ]
        },
        {
          "name": "ECON 105: Macroeconomics or ECON 106: Microeonomics",
          "crucial": false,
          "min_grade": "C",
          "credits": 3,
          "courses": [
            {
              "number": "ECON 105",
              "title": "Introductory Macroeconomics"
            },
            {
              "number": "ECON 106",
              "title": "Introductory Microeconomics"
            }
          ]
        }
      ]
    },
    {
      "requirements": [
        {
          "name": "ECE 206L: Instrumentation",
          "crucial": false,
          "min_grade": "C",
          "credits": 2,
          "courses": [
            {
              "number": "ECE 206L",
              "title": "Instrumentation"
            }
          ]
        },
        {
          "name": "ECE 213: Circuit Analysis II",
          "crucial": true,
          "min_grade": "C",
          "credits": 3,
          "courses": [
            {
              "number": "ECE 213",
              "title": "Circuit Analysis II"
            }
          ]
        },
        {
          "name": "ECE 300: Advanced Engineering Mathematics",
          "crucial": false,
          "min_grade": "C",
          "credits": 4,
          "courses": [

          ]
        },
        {
          "name": "MATH 264: Calculus III",
          "crucial": false,
          "min_grade": "C",
          "credits": 4,
          "courses": [
            {
              "number": "MATH 264",
              "title": "Calculus III"
            }
          ]
        },
        {
          "name": "ECE 330: Software Design",
          "crucial": false,
          "min_grade": "C",
          "credits": 3,
          "courses": [
            {
              "number": "ECE 330",
              "title": "Software Design"
            }
          ]
        }
      ]
    },
    {
      "requirements": [
        {
          "name": "ECE 321L: Electronics I",
          "crucial": false,
          "min_grade": "C",
          "credits": 4,
          "courses": [
            {
              "number": "ECE 321L",
              "title": "Electronics I"
            }
          ]
        },
        {
          "name": "MATH 327: Discrete Structures",
          "crucial": true,
          "min_grade": "C",
          "credits": 3,
          "courses": [
            {
              "number": "MATH 327",
              "title": "Discrete Structures"
            }
          ]
        },
        {
          "name": "ECE 314: Signals and Systems",
          "crucial": false,
          "min_grade": "C",
          "credits": 3,
          "courses": [
            {
              "number": "ECE 314",
              "title": "Signals and Systems"
            }
          ]
        },
        {
          "name": "ECE 340: Probabilistic Methods in Engineering",
          "crucial": false,
          "min_grade": "C",
          "credits": 3,
          "courses": [
            {
              "number": "ECE 340",
              "title": "Probabilistic Methods in Eng"
            }
          ]
        },
        {
          "name": "Second Language",
          "crucial": false,
          "min_grade": "C",
          "credits": 3,
          "courses": [

          ]
        }
      ]
    },
    {
      "requirements": [
        {
          "name": "Computer Engineering Track Elective",
          "crucial": false,
          "min_grade": "C",
          "credits": 3,
          "courses": [

          ]
        },
        {
          "name": "ECE 331: Data Structure Algorithms",
          "crucial": false,
          "min_grade": "C",
          "credits": 3,
          "courses": [
            {
              "number": "ECE 331",
              "title": "Data Structures & Algorithms"
            }
          ]
        },
        {
          "name": "ECE 344L: Microprocessors",
          "crucial": false,
          "min_grade": "C",
          "credits": 4,
          "courses": [
            {
              "number": "ECE 344L",
              "title": "Microprocessors"
            }
          ]
        },
        {
          "name": "Social Science",
          "crucial": false,
          "min_grade": "C",
          "credits": 3,
          "courses": [

          ]
        }
      ]
    },
    {
      "requirements": [
        {
          "name": "ECE 419: Senior Design I",
          "crucial": false,
          "min_grade": "C",
          "credits": 3,
          "courses": [
            {
              "number": "ECE 419",
              "title": "Senior Design I"
            }
          ]
        },
        {
          "name": "ECE 437: Operating Systems",
          "crucial": false,
          "min_grade": "C",
          "credits": 3,
          "courses": [
            {
              "number": "ECE 419",
              "title": "Senior Design I"
            }
          ]
        },
        {
          "name": "Computer Engineering Track Elective",
          "crucial": false,
          "min_grade": "C",
          "credits": 3,
          "courses": [

          ]
        },
        {
          "name": "Senior Technical Elective",
          "crucial": false,
          "min_grade": "C",
          "credits": 3,
          "courses": [

          ]
        },
        {
          "name": "Humanities",
          "crucial": false,
          "min_grade": "C",
          "credits": 3,
          "courses": [

          ]
        }
      ]
    },
    {
      "requirements": [
        {
          "name": "ECE 420: Senior Design II",
          "crucial": false,
          "min_grade": "C",
          "credits": 3,
          "courses": [
            {
              "number": "ECE 420",
              "title": "Senior Design II"
            }
          ]
        },
        {
          "name": "ECE 440: Computer Networks",
          "crucial": false,
          "min_grade": "C",
          "credits": 3,
          "courses": [
            {
              "number": "ECE 440",
              "title": "Computer Networks"
            }
          ]
        },
        {
          "name": "Senior Technical Elective",
          "crucial": false,
          "min_grade": "C",
          "credits": 3,
          "courses": [

          ]
        },
        {
          "name": "Fine Arts",
          "crucial": false,
          "min_grade": "C",
          "credits": 3,
          "courses": [

          ]
        },
        {
          "name": "Humanities",
          "crucial": false,
          "min_grade": "C",
          "credits": 3,
          "courses": [

          ]
        }
      ]
    }
  ]
}