{
  "name": "Construction Engineering",
  "degree_type": "4 Year Plan",
  "degree_awarded": "BS",
  "notes": [
    {
      "note": "Each candidate for a degree must have at least a 2.00 GPA on work taken at the University of New Mexico which is counted toward the degree and at least a 2.00 GPA on all work taken at the University of New Mexico. In order to count toward graduation, each course required in a School of Engineering curriculum must be completed with a grade of C- or better. Courses used to fulfill the University of New Mexico core curriculum require a grade of C or better. Departments may have more restrictive academic requirements which also must be met."
    },
    {
      "note": ""
    }
  ],
  "terms": [
    {
      "requirements": [
        {
          "name": "ENGL 110: Accelerated Composition or ENGL 111: Composition I and ENGL 112: Composition II or ENGL 113: Enhanced Composition",
          "crucial": false,
          "min_grade": "C",
          "credits": 3,
          "courses": [

          ]
        },
        {
          "name": "MATH 162: Calculus I",
          "crucial": true,
          "min_grade": "C",
          "credits": 4,
          "courses": [
            {
              "number": "MATH 162",
              "title": "Calculus I"
            }
          ]
        },
        {
          "name": "CE 160L: Civil Engineering Design",
          "crucial": true,
          "min_grade": "C-",
          "credits": 3,
          "courses": [
            {
              "number": "CE 160L",
              "title": "Civil Engineering Design"
            }
          ]
        },
        {
          "name": "CHEM 121: General Chemistry I",
          "crucial": true,
          "min_grade": "C",
          "credits": 3,
          "courses": [
            {
              "number": "CHEM 121",
              "title": "General Chem with Lab"
            }
          ]
        },
        {
          "name": "CHEM 123L: General Chemistry I Lab",
          "crucial": true,
          "min_grade": "C",
          "credits": 1,
          "courses": [
            {
              "number": "CHEM 123L",
              "title": "General Chemistry I Lab"
            }
          ]
        }
      ]
    },
    {
      "requirements": [
        {
          "name": "ENGL 120: Composition III",
          "crucial": false,
          "min_grade": "C",
          "credits": 3,
          "courses": [

          ]
        },
        {
          "name": "MATH 163: Calculus II",
          "crucial": true,
          "min_grade": "C",
          "credits": 4,
          "courses": [
            {
              "number": "MATH 163",
              "title": "Calculus II"
            }
          ]
        },
        {
          "name": "PHYC 160: General Physics I",
          "crucial": true,
          "min_grade": "C",
          "credits": 3,
          "courses": [
            {
              "number": "PHYC 160",
              "title": "General Physics"
            }
          ]
        },
        {
          "name": "EPS 101: The Blue Planet or BIOL 110: Biology Non-Majors",
          "crucial": false,
          "min_grade": "C",
          "credits": 3,
          "courses": [
            {
              "number": "BIOL 110",
              "title": "Biology Non-Majors"
            },
            {
              "number": "EPS 101",
              "title": "Intro Geology How Earth Works"
            }
          ]
        },
        {
          "name": "CS 151L: Computer Programming Fundamentals",
          "crucial": true,
          "min_grade": "C-",
          "credits": 3,
          "courses": [
            {
              "number": "CS 151L",
              "title": "Programming Fund Nonmajors"
            }
          ]
        }
      ]
    },
    {
      "requirements": [
        {
          "name": "CE 202: Statics",
          "crucial": false,
          "min_grade": "C-",
          "credits": 3,
          "courses": [
            {
              "number": "CE 202",
              "title": "Engineering Statics"
            }
          ]
        },
        {
          "name": "MATH 264: Calculus III",
          "crucial": false,
          "min_grade": "C",
          "credits": 4,
          "courses": [
            {
              "number": "MATH 264",
              "title": "Calculus III"
            }
          ]
        },
        {
          "name": "PHYC 161: General Physics II",
          "crucial": false,
          "min_grade": "C",
          "credits": 3,
          "courses": [
            {
              "number": "MATH 316",
              "title": "Applied Ordinary Diff Equas"
            }
          ]
        },
        {
          "name": "CE 283: Survey and Geomatics (Transportation System Measurements)",
          "crucial": false,
          "min_grade": "C",
          "credits": 3,
          "courses": [
            {
              "number": "CE 283",
              "title": "Transportation Sys Measurement"
            }
          ]
        },
        {
          "name": "ECON 105: Macroeconomics or ECON 106: Microeconomics",
          "crucial": false,
          "min_grade": "C",
          "credits": 3,
          "courses": [
            {
              "number": "ECON 105",
              "title": "Introductory Macroeconomics"
            },
            {
              "number": "ECON 106",
              "title": "Introductory Microeconomics"
            }
          ]
        }
      ]
    },
    {
      "requirements": [
        {
          "name": "MATH 316: Differential Equations",
          "crucial": false,
          "min_grade": "C-",
          "credits": 3,
          "courses": [
            {
              "number": "MATH 316",
              "title": "Applied Ordinary Diff Equas"
            }
          ]
        },
        {
          "name": "MGMT 202: Principles of Financial Accounting",
          "crucial": false,
          "min_grade": "C-",
          "credits": 3,
          "courses": [
            {
              "number": "MGMT 202",
              "title": "Principles of Financial Acct"
            }
          ]
        },
        {
          "name": "ENG 301: Dynamics",
          "crucial": false,
          "min_grade": "C-",
          "credits": 1,
          "courses": [

          ]
        },
        {
          "name": "ENG 302: Electronics (Non-majors)",
          "crucial": false,
          "min_grade": "C-",
          "credits": 1,
          "courses": [

          ]
        },
        {
          "name": "ENG 303: Thermodynamics",
          "crucial": false,
          "min_grade": "C-",
          "credits": 1,
          "courses": [

          ]
        },
        {
          "name": "ENGL 219: Technical Writing",
          "crucial": false,
          "min_grade": "C",
          "credits": 3,
          "courses": [
            {
              "number": "ENGL 219",
              "title": "Tech & Professional Writing"
            }
          ]
        },
        {
          "name": "Humanities Core",
          "crucial": false,
          "min_grade": "C",
          "credits": 3,
          "courses": [

          ]
        }
      ]
    },
    {
      "requirements": [
        {
          "name": "CE 302: Mechanics of Materials",
          "crucial": false,
          "min_grade": "C-",
          "credits": 3,
          "courses": [
            {
              "number": "CE 302",
              "title": "Mechanics of Materials"
            }
          ]
        },
        {
          "name": "CE 305: Infrastructure Materials Science",
          "crucial": false,
          "min_grade": "C-",
          "credits": 4,
          "courses": [
            {
              "number": "CE 305",
              "title": "Civil Engineering Materials"
            }
          ]
        },
        {
          "name": "CE 350: Engineering Economy",
          "crucial": false,
          "min_grade": "C-",
          "credits": 3,
          "courses": [
            {
              "number": "CE 350",
              "title": "Engineering Economy"
            }
          ]
        },
        {
          "name": "CE 376: Cost Estimating",
          "crucial": false,
          "min_grade": "C-",
          "credits": 3,
          "courses": [
            {
              "number": "CE 376",
              "title": "Cost Estimating"
            }
          ]
        },
        {
          "name": "Humanities Core",
          "crucial": false,
          "min_grade": "C",
          "credits": 3,
          "courses": [

          ]
        }
      ]
    },
    {
      "requirements": [
        {
          "name": "STAT 345: Elements of Mathematical Statistics and Probability Theory",
          "crucial": false,
          "min_grade": "C-",
          "credits": 3,
          "courses": [
            {
              "number": "STAT 345",
              "title": "Elements of Math Stat & Prob"
            }
          ]
        },
        {
          "name": "CE 308: Structural Analysis",
          "crucial": false,
          "min_grade": "C-",
          "credits": 3,
          "courses": [
            {
              "number": "CE 308",
              "title": "Structural Analysis"
            }
          ]
        },
        {
          "name": "CE 360: Soil Mechanics",
          "crucial": false,
          "min_grade": "C-",
          "credits": 4,
          "courses": [
            {
              "number": "CE 360",
              "title": "Soil Mechanics"
            }
          ]
        },
        {
          "name": "CE 370: Construction Methods and Equipment",
          "crucial": false,
          "min_grade": "C-",
          "credits": 3,
          "courses": [
            {
              "number": "CE 370",
              "title": "Constr Methods & Equipment"
            }
          ]
        },
        {
          "name": "CE 377: Construction Scheduling",
          "crucial": false,
          "min_grade": "C-",
          "credits": 3,
          "courses": [
            {
              "number": "CE 377",
              "title": "Construction Scheduling"
            }
          ]
        }
      ]
    },
    {
      "requirements": [
        {
          "name": "CE 331: Fluid Mechanics/Lab",
          "crucial": false,
          "min_grade": "C-",
          "credits": 4,
          "courses": [
            {
              "number": "CE 331",
              "title": "Fluid Mechanics"
            }
          ]
        },
        {
          "name": "CE 477: Project Controls",
          "crucial": false,
          "min_grade": "C-",
          "credits": 3,
          "courses": [
            {
              "number": "CE 477",
              "title": "Advanced Planning & Estimating"
            }
          ]
        },
        {
          "name": "Technical Elective",
          "crucial": false,
          "min_grade": "C-",
          "credits": 3,
          "courses": [

          ]
        },
        {
          "name": "Technical Elective",
          "crucial": false,
          "min_grade": "C-",
          "credits": 3,
          "courses": [

          ]
        },
        {
          "name": "Second Language Core",
          "crucial": false,
          "min_grade": "C",
          "credits": 3,
          "courses": [

          ]
        }
      ]
    },
    {
      "requirements": [
        {
          "name": "CE 473: Construction Law",
          "crucial": false,
          "min_grade": "C-",
          "credits": 3,
          "courses": [
            {
              "number": "CE 473",
              "title": "Construction Law"
            }
          ]
        },
        {
          "name": "CE 475: Construction Safety",
          "crucial": false,
          "min_grade": "C-",
          "credits": 3,
          "courses": [
            {
              "number": "CE 475",
              "title": "Construction Safety"
            }
          ]
        },
        {
          "name": "CE 495: Construction Internship",
          "crucial": false,
          "min_grade": "C-",
          "credits": 1,
          "courses": [
            {
              "number": "CE 495",
              "title": "Construction Internship"
            }
          ]
        },
        {
          "name": "CE 499: Design of Civil Engineering Systems",
          "crucial": false,
          "min_grade": "C-",
          "credits": 3,
          "courses": [
            {
              "number": "CE 499",
              "title": "Design of CE Systems"
            }
          ]
        },
        {
          "name": "Social/Behavioral Science Core",
          "crucial": false,
          "min_grade": "C",
          "credits": 3,
          "courses": [

          ]
        },
        {
          "name": "Fine Arts Core",
          "crucial": false,
          "min_grade": "C",
          "credits": 3,
          "courses": [

          ]
        }
      ]
    }
  ]
}