{
  "name": "Health Education",
  "degree_type": "4 Year Plan",
  "degree_awarded": "BSED",
  "notes": [

  ],
  "terms": [
    {
      "requirements": [
        {
          "name": "ENGL 110: Accelerated Composition or ENGL 111: Composition I and ENGL 112: Composition II or ENGL 113: Enhanced Composition",
          "crucial": false,
          "min_grade": "C",
          "credits": 3,
          "courses": [

          ]
        },
        {
          "name": "HED 171: Personal Health Management",
          "crucial": false,
          "min_grade": "C",
          "credits": 3,
          "courses": [
            {
              "number": "HED 171",
              "title": "Personal Hlth Management"
            }
          ]
        },
        {
          "name": "PSY 105: General Psychology",
          "crucial": false,
          "min_grade": "C",
          "credits": 3,
          "courses": [
            {
              "number": "PSY 105",
              "title": "General Psychology"
            }
          ]
        },
        {
          "name": "BIOL 123: Biology for Health Related Sciences and Non-Majors",
          "crucial": false,
          "min_grade": "C",
          "credits": 3,
          "courses": [
            {
              "number": "BIOL 123",
              "title": "Bio for Health Related Sci"
            }
          ]
        },
        {
          "name": "BIOL 124L: Biology for Health Related Sciences and Non-Majors Lab",
          "crucial": false,
          "min_grade": "C",
          "credits": 1,
          "courses": [
            {
              "number": "BIOL 124L",
              "title": "Bio-Health Sci Lab"
            }
          ]
        },
        {
          "name": "MATH",
          "crucial": false,
          "min_grade": "C",
          "credits": 3,
          "courses": [

          ]
        }
      ]
    },
    {
      "requirements": [
        {
          "name": "CHEM 111: Elements of General Chemistry",
          "crucial": false,
          "min_grade": "C",
          "credits": 4,
          "courses": [
            {
              "number": "CHEM 111",
              "title": "Elem of Gen Chem with Lab"
            }
          ]
        },
        {
          "name": "ENGL 120: Composition III",
          "crucial": false,
          "min_grade": "C",
          "credits": 3,
          "courses": [

          ]
        },
        {
          "name": "CJ 130: Public Speaking",
          "crucial": false,
          "min_grade": "C",
          "credits": 3,
          "courses": [
            {
              "number": "CJ 130",
              "title": "Public Speaking"
            }
          ]
        },
        {
          "name": "ANTH 130: Cultures of the World",
          "crucial": false,
          "min_grade": "C",
          "credits": 3,
          "courses": [
            {
              "number": "ANTH 130",
              "title": "Cultures of the World"
            }
          ]
        },
        {
          "name": "SOC 101: Introduction to Sociology",
          "crucial": false,
          "min_grade": "C",
          "credits": 3,
          "courses": [
            {
              "number": "SOC 101",
              "title": "Introduction to Sociology"
            }
          ]
        }
      ]
    },
    {
      "requirements": [
        {
          "name": "HED 260: Foundations of Health Promotion",
          "crucial": false,
          "min_grade": "C",
          "credits": 3,
          "courses": [
            {
              "number": "HED 260",
              "title": "Found Health Promotion"
            }
          ]
        },
        {
          "name": "PSY 200: Statistical Principles",
          "crucial": false,
          "min_grade": "C",
          "credits": 3,
          "courses": [
            {
              "number": "PSY 200",
              "title": "Statistical Principles"
            }
          ]
        },
        {
          "name": "ENGL 219: Technical Writing",
          "crucial": false,
          "min_grade": "C",
          "credits": 3,
          "courses": [
            {
              "number": "ENGL 219",
              "title": "Tech & Professional Writing"
            }
          ]
        },
        {
          "name": "Foreign Language Core Course",
          "crucial": false,
          "min_grade": "C",
          "credits": 3,
          "courses": [

          ]
        },
        {
          "name": "Elective",
          "crucial": false,
          "min_grade": "C",
          "credits": 3,
          "courses": [

          ]
        }
      ]
    },
    {
      "requirements": [
        {
          "name": "BIOL 239L: Microbiology for Health Sciences and Non-Majors",
          "crucial": false,
          "min_grade": "C",
          "credits": 4,
          "courses": [
            {
              "number": "BIOL 239L",
              "title": "Microbio Health Sciences Lab"
            }
          ]
        },
        {
          "name": "NUTR 244: Human Nutrition",
          "crucial": false,
          "min_grade": "C",
          "credits": 3,
          "courses": [
            {
              "number": "NUTR 244",
              "title": "Human Nutrition"
            }
          ]
        },
        {
          "name": "HED 212: Fundamentals of Human Sexuality",
          "crucial": false,
          "min_grade": "C",
          "credits": 3,
          "courses": [
            {
              "number": "HED 212",
              "title": "Fund Human Sexuality"
            }
          ]
        },
        {
          "name": "HED Elective: Choose from 1 credit hour HED course list",
          "crucial": false,
          "min_grade": "C",
          "credits": 1,
          "courses": [
            {
              "number": "HED 209",
              "title": "Educ for Aids Prevention"
            },
            {
              "number": "HED 247",
              "title": "Consumer Health"
            },
            {
              "number": "HED 306",
              "title": "Conflict Mediation"
            },
            {
              "number": "HED 310",
              "title": "Injury Prevention"
            },
            {
              "number": "HED 321",
              "title": "Violence Prevention"
            },
            {
              "number": "HED 445",
              "title": "Strat Prevent of Subs Abuse"
            }
          ]
        },
        {
          "name": "HED Elective: Choose from 1 credit hour HED course list",
          "crucial": false,
          "min_grade": "C",
          "credits": 1,
          "courses": [
            {
              "number": "HED 209",
              "title": "Educ for Aids Prevention"
            },
            {
              "number": "HED 247",
              "title": "Consumer Health"
            },
            {
              "number": "HED 306",
              "title": "Conflict Mediation"
            },
            {
              "number": "HED 310",
              "title": "Injury Prevention"
            },
            {
              "number": "HED 321",
              "title": "Violence Prevention"
            },
            {
              "number": "HED 445",
              "title": "Strat Prevent of Subs Abuse"
            }
          ]
        },
        {
          "name": "Fine Arts Core Course",
          "crucial": false,
          "min_grade": "C",
          "credits": 3,
          "courses": [

          ]
        }
      ]
    },
    {
      "requirements": [
        {
          "name": "HED 362: Introduction to Health Behavior Theory",
          "crucial": false,
          "min_grade": "C",
          "credits": 3,
          "courses": [
            {
              "number": "HED 362",
              "title": "Theo Skills Dev of Adol"
            }
          ]
        },
        {
          "name": "HED 371: Community Health [Introduction to Community Health",
          "crucial": false,
          "min_grade": "C",
          "credits": 3,
          "courses": [
            {
              "number": "HED 371",
              "title": "Community Health"
            }
          ]
        },
        {
          "name": "EDPY 303: Human Growth and Development",
          "crucial": false,
          "min_grade": "C",
          "credits": 3,
          "courses": [
            {
              "number": "EDPY 303",
              "title": "Human Growth and Development"
            }
          ]
        },
        {
          "name": "SOC 380: Introduction to Research Methods",
          "crucial": false,
          "min_grade": "C",
          "credits": 3,
          "courses": [

          ]
        },
        {
          "name": "HED Elective: Choose from 1 credit hour HED course list",
          "crucial": false,
          "min_grade": "C",
          "credits": 1,
          "courses": [
            {
              "number": "HED 209",
              "title": "Educ for Aids Prevention"
            },
            {
              "number": "HED 247",
              "title": "Consumer Health"
            },
            {
              "number": "HED 306",
              "title": "Conflict Mediation"
            },
            {
              "number": "HED 310",
              "title": "Injury Prevention"
            },
            {
              "number": "HED 321",
              "title": "Violence Prevention"
            },
            {
              "number": "HED 445",
              "title": "Strat Prevent of Subs Abuse"
            }
          ]
        },
        {
          "name": "HED Elective: Choose from 1 credit hour HED course list",
          "crucial": false,
          "min_grade": "C",
          "credits": 1,
          "courses": [
            {
              "number": "HED 209",
              "title": "Educ for Aids Prevention"
            },
            {
              "number": "HED 247",
              "title": "Consumer Health"
            },
            {
              "number": "HED 306",
              "title": "Conflict Mediation"
            },
            {
              "number": "HED 310",
              "title": "Injury Prevention"
            },
            {
              "number": "HED 321",
              "title": "Violence Prevention"
            },
            {
              "number": "HED 445",
              "title": "Strat Prevent of Subs Abuse"
            }
          ]
        },
        {
          "name": "HED Elective: Choose from 1 credit hour HED course list",
          "crucial": false,
          "min_grade": "C",
          "credits": 1,
          "courses": [
            {
              "number": "HED 209",
              "title": "Educ for Aids Prevention"
            },
            {
              "number": "HED 247",
              "title": "Consumer Health"
            },
            {
              "number": "HED 306",
              "title": "Conflict Mediation"
            },
            {
              "number": "HED 310",
              "title": "Injury Prevention"
            },
            {
              "number": "HED 321",
              "title": "Violence Prevention"
            },
            {
              "number": "HED 445",
              "title": "Strat Prevent of Subs Abuse"
            }
          ]
        }
      ]
    },
    {
      "requirements": [
        {
          "name": "HED 482: Introduction to Health Education and Multicultural Health Beliefs",
          "crucial": false,
          "min_grade": "C",
          "credits": 3,
          "courses": [
            {
              "number": "HED 482",
              "title": "Hlth Prom Multicul Settings"
            }
          ]
        },
        {
          "name": "HED 383: Principles of Epidemiology",
          "crucial": false,
          "min_grade": "C",
          "credits": 3,
          "courses": [

          ]
        },
        {
          "name": "HED Elective: Choose from 3 credit hour HED course list",
          "crucial": false,
          "min_grade": "C",
          "credits": 3,
          "courses": [
            {
              "number": "HED 164L",
              "title": "First Aid Lab"
            },
            {
              "number": "HED 333",
              "title": "Emot Hlth Interp Rel"
            },
            {
              "number": "HED 473",
              "title": "Hlth Iss of Death & Dying"
            },
            {
              "number": "HED 477",
              "title": "Stress Management"
            },
            {
              "number": "HED 487",
              "title": "Phys Active & Aging"
            },
            {
              "number": "HED 493",
              "title": "Topics"
            }
          ]
        },
        {
          "name": "Upper Division Elective",
          "crucial": false,
          "min_grade": "C",
          "credits": 3,
          "courses": [
            {
              "number": "ANTH 330",
              "title": "Principles of Cultural Anthro"
            },
            {
              "number": "SUST 402",
              "title": "T: Sustainability Studies"
            },
            {
              "number": "CJ 225",
              "title": "Small Group Communication"
            },
            {
              "number": "CJ 314",
              "title": "Intercultural Communication"
            },
            {
              "number": "CJ 327",
              "title": "Persuasive Communication"
            },
            {
              "number": "CJ 344",
              "title": "Interviewing"
            },
            {
              "number": "CJ 450",
              "title": "Health Communication"
            },
            {
              "number": "ECON 203",
              "title": "Society and the Environment"
            },
            {
              "number": "OILS 470",
              "title": "Workplace Training"
            },
            {
              "number": "OILS 471",
              "title": "Designing Training"
            },
            {
              "number": "OILS 472",
              "title": "Training Techniques"
            },
            {
              "number": "MSET 365",
              "title": "Microcomp in School"
            },
            {
              "number": "POLS 270",
              "title": "Public Policy & Administration"
            },
            {
              "number": "POLS 376",
              "title": "Health Policy and Politics"
            },
            {
              "number": "PSY 374",
              "title": "Cross Cultural Psychology"
            },
            {
              "number": "CRP 403",
              "title": "Community-Based Practice"
            },
            {
              "number": "CRP 425",
              "title": "Urban Design Theory"
            },
            {
              "number": "CRP 474",
              "title": "Cultural Aspects of Comm Dev"
            },
            {
              "number": "CRP 483",
              "title": "Intro To GIS"
            },
            {
              "number": "SOC 216",
              "title": "Dynamics of Prejudce"
            },
            {
              "number": "SOC 308",
              "title": "Sociology of Gender"
            },
            {
              "number": "SOC 326",
              "title": "Sociology of New Mexico"
            }
          ]
        },
        {
          "name": "Upper Division Elective",
          "crucial": false,
          "min_grade": "C",
          "credits": 3,
          "courses": [

          ]
        }
      ]
    },
    {
      "requirements": [
        {
          "name": "Humanities Core Course",
          "crucial": false,
          "min_grade": "C",
          "credits": 3,
          "courses": [

          ]
        },
        {
          "name": "Upper Division Elective",
          "crucial": false,
          "min_grade": "C",
          "credits": 3,
          "courses": [
            {
              "number": "ANTH 330",
              "title": "Principles of Cultural Anthro"
            },
            {
              "number": "SUST 402",
              "title": "T: Sustainability Studies"
            },
            {
              "number": "CJ 225",
              "title": "Small Group Communication"
            },
            {
              "number": "CJ 314",
              "title": "Intercultural Communication"
            },
            {
              "number": "CJ 327",
              "title": "Persuasive Communication"
            },
            {
              "number": "CJ 344",
              "title": "Interviewing"
            },
            {
              "number": "CJ 450",
              "title": "Health Communication"
            },
            {
              "number": "ECON 203",
              "title": "Society and the Environment"
            },
            {
              "number": "OILS 470",
              "title": "Workplace Training"
            },
            {
              "number": "OILS 471",
              "title": "Designing Training"
            },
            {
              "number": "OILS 472",
              "title": "Training Techniques"
            },
            {
              "number": "MSET 365",
              "title": "Microcomp in School"
            },
            {
              "number": "POLS 270",
              "title": "Public Policy & Administration"
            },
            {
              "number": "POLS 376",
              "title": "Health Policy and Politics"
            },
            {
              "number": "PSY 374",
              "title": "Cross Cultural Psychology"
            },
            {
              "number": "CRP 403",
              "title": "Community-Based Practice"
            },
            {
              "number": "CRP 425",
              "title": "Urban Design Theory"
            },
            {
              "number": "CRP 474",
              "title": "Cultural Aspects of Comm Dev"
            },
            {
              "number": "CRP 483",
              "title": "Intro To GIS"
            },
            {
              "number": "SOC 216",
              "title": "Dynamics of Prejudce"
            },
            {
              "number": "SOC 308",
              "title": "Sociology of Gender"
            },
            {
              "number": "SOC 326",
              "title": "Sociology of New Mexico"
            }
          ]
        },
        {
          "name": "HED Elective: Choose from 3 credit hour HED course list",
          "crucial": false,
          "min_grade": "C",
          "credits": 3,
          "courses": [
            {
              "number": "HED 164L",
              "title": "First Aid Lab"
            },
            {
              "number": "HED 333",
              "title": "Emot Hlth Interp Rel"
            },
            {
              "number": "HED 473",
              "title": "Hlth Iss of Death & Dying"
            },
            {
              "number": "HED 477",
              "title": "Stress Management"
            },
            {
              "number": "HED 487",
              "title": "Phys Active & Aging"
            },
            {
              "number": "HED 493",
              "title": "Topics"
            }
          ]
        },
        {
          "name": "HED Elective: Choose from 3 credit hour HED course list",
          "crucial": false,
          "min_grade": "C",
          "credits": 3,
          "courses": [
            {
              "number": "HED 164L",
              "title": "First Aid Lab"
            },
            {
              "number": "HED 333",
              "title": "Emot Hlth Interp Rel"
            },
            {
              "number": "HED 473",
              "title": "Hlth Iss of Death & Dying"
            },
            {
              "number": "HED 477",
              "title": "Stress Management"
            },
            {
              "number": "HED 487",
              "title": "Phys Active & Aging"
            },
            {
              "number": "HED 493",
              "title": "Topics"
            }
          ]
        },
        {
          "name": "HED 495: Field Experience",
          "crucial": false,
          "min_grade": "C",
          "credits": 3,
          "courses": [
            {
              "number": "HED 495",
              "title": "Field Experience"
            }
          ]
        }
      ]
    },
    {
      "requirements": [
        {
          "name": "Humanities Core Course",
          "crucial": false,
          "min_grade": "C",
          "credits": 3,
          "courses": [

          ]
        },
        {
          "name": "HED 446: Health Promotion Program Planning [Professional Applications in Health Education]",
          "crucial": false,
          "min_grade": "C",
          "credits": 3,
          "courses": [
            {
              "number": "HED 446",
              "title": "Hlth Promotion Prgrm Planning"
            }
          ]
        },
        {
          "name": "HED 451: Secondary Teaching Methods and Curriculum Development for Health Education [Teaching Strategies and Curriculum for Health Education]",
          "crucial": false,
          "min_grade": "C",
          "credits": 3,
          "courses": [
            {
              "number": "HED 451",
              "title": "Tea Strat & Curr Dev Hlth Ed"
            }
          ]
        },
        {
          "name": "HED 495: Field Experience",
          "crucial": false,
          "min_grade": "C",
          "credits": 3,
          "courses": [
            {
              "number": "HED 495",
              "title": "Field Experience"
            }
          ]
        },
        {
          "name": "Upper Division Elective",
          "crucial": false,
          "min_grade": "C",
          "credits": 3,
          "courses": [
            {
              "number": "ANTH 330",
              "title": "Principles of Cultural Anthro"
            },
            {
              "number": "SUST 402",
              "title": "T: Sustainability Studies"
            },
            {
              "number": "CJ 225",
              "title": "Small Group Communication"
            },
            {
              "number": "CJ 314",
              "title": "Intercultural Communication"
            },
            {
              "number": "CJ 327",
              "title": "Persuasive Communication"
            },
            {
              "number": "CJ 344",
              "title": "Interviewing"
            },
            {
              "number": "CJ 450",
              "title": "Health Communication"
            },
            {
              "number": "ECON 203",
              "title": "Society and the Environment"
            },
            {
              "number": "OILS 470",
              "title": "Workplace Training"
            },
            {
              "number": "OILS 471",
              "title": "Designing Training"
            },
            {
              "number": "OILS 472",
              "title": "Training Techniques"
            },
            {
              "number": "MSET 365",
              "title": "Microcomp in School"
            },
            {
              "number": "POLS 270",
              "title": "Public Policy & Administration"
            },
            {
              "number": "POLS 376",
              "title": "Health Policy and Politics"
            },
            {
              "number": "PSY 374",
              "title": "Cross Cultural Psychology"
            },
            {
              "number": "CRP 403",
              "title": "Community-Based Practice"
            },
            {
              "number": "CRP 425",
              "title": "Urban Design Theory"
            },
            {
              "number": "CRP 474",
              "title": "Cultural Aspects of Comm Dev"
            },
            {
              "number": "CRP 483",
              "title": "Intro To GIS"
            },
            {
              "number": "SOC 216",
              "title": "Dynamics of Prejudce"
            },
            {
              "number": "SOC 308",
              "title": "Sociology of Gender"
            },
            {
              "number": "SOC 326",
              "title": "Sociology of New Mexico"
            }
          ]
        }
      ]
    }
  ]
}