{
  "name": "History",
  "degree_type": "4 Year Plan",
  "degree_awarded": "BA",
  "notes": [
    {
      "note": "Minimum graduation GPA = 2.00. Keep in mind that minimum grades on road map are for individual coursework only. Students must maintain a minimum of a 2.0 cumulative GPA for admisssion to and graduation from the College of Art & Science."
    }
  ],
  "terms": [
    {
      "requirements": [
        {
          "name": "HIST 100 level*",
          "crucial": false,
          "min_grade": "C",
          "credits": 3,
          "courses": [

          ]
        },
        {
          "name": "ENGL 110: Accelerated Composition or ENGL 111: Composition I and ENGL 112: Composition II or ENGL 113: Enhanced Composition",
          "crucial": false,
          "min_grade": "C",
          "credits": 3,
          "courses": [

          ]
        },
        {
          "name": "Freshman Academic Choice",
          "crucial": false,
          "min_grade": "D-",
          "credits": 3,
          "courses": [

          ]
        },
        {
          "name": "Math Core Course",
          "crucial": false,
          "min_grade": "C",
          "credits": 3,
          "courses": [

          ]
        },
        {
          "name": "Social Behavioral Science Core Course",
          "crucial": false,
          "min_grade": "C",
          "credits": 3,
          "courses": [

          ]
        }
      ]
    },
    {
      "requirements": [
        {
          "name": "HIST 100 level*",
          "crucial": false,
          "min_grade": "C",
          "credits": 3,
          "courses": [

          ]
        },
        {
          "name": "ENGL 120: Composition III",
          "crucial": false,
          "min_grade": "C",
          "credits": 3,
          "courses": [

          ]
        },
        {
          "name": "Foreign Language Core Course",
          "crucial": false,
          "min_grade": "C",
          "credits": 3,
          "courses": [

          ]
        },
        {
          "name": "Physical and Natural Science Core Course",
          "crucial": false,
          "min_grade": "C",
          "credits": 3,
          "courses": [

          ]
        },
        {
          "name": "Minor or 2nd Major Requirement",
          "crucial": false,
          "min_grade": "C",
          "credits": 3,
          "courses": [

          ]
        }
      ]
    },
    {
      "requirements": [
        {
          "name": "HIST 100 level*",
          "crucial": false,
          "min_grade": "C",
          "credits": 3,
          "courses": [

          ]
        },
        {
          "name": "HIST 100 level*",
          "crucial": false,
          "min_grade": "C",
          "credits": 3,
          "courses": [

          ]
        },
        {
          "name": "Minor or 2nd Major Requirement",
          "crucial": false,
          "min_grade": "C",
          "credits": 3,
          "courses": [

          ]
        },
        {
          "name": "CJ 130 or PHIL 156 or ENGL 219 or ENGL 220",
          "crucial": false,
          "min_grade": "C",
          "credits": 3,
          "courses": [
            {
              "number": "CJ 130",
              "title": "Public Speaking"
            },
            {
              "number": "ENGL 219",
              "title": "Tech & Professional Writing"
            },
            {
              "number": "ENGL 220",
              "title": "Expository Writing"
            },
            {
              "number": "PHIL 156",
              "title": "Reasoning & Critical Thinking"
            }
          ]
        },
        {
          "name": "Fine Arts Core Course",
          "crucial": false,
          "min_grade": "C",
          "credits": 3,
          "courses": [

          ]
        }
      ]
    },
    {
      "requirements": [
        {
          "name": "HIST 300-400 level",
          "crucial": false,
          "min_grade": "C",
          "credits": 3,
          "courses": [

          ]
        },
        {
          "name": "HIST 300-400 level",
          "crucial": false,
          "min_grade": "C",
          "credits": 3,
          "courses": [

          ]
        },
        {
          "name": "Upper Division Elective",
          "crucial": false,
          "min_grade": "D-",
          "credits": 3,
          "courses": [

          ]
        },
        {
          "name": "Minor or 2nd Major Requirement",
          "crucial": false,
          "min_grade": "C",
          "credits": 3,
          "courses": [

          ]
        },
        {
          "name": "Social Behavioral Science Core Course",
          "crucial": false,
          "min_grade": "C",
          "credits": 3,
          "courses": [

          ]
        }
      ]
    },
    {
      "requirements": [
        {
          "name": "HIST 300-400 level",
          "crucial": false,
          "min_grade": "C",
          "credits": 3,
          "courses": [

          ]
        },
        {
          "name": "HIST 300-400 level",
          "crucial": false,
          "min_grade": "C",
          "credits": 3,
          "courses": [

          ]
        },
        {
          "name": "Physical and Natural Science Core Course",
          "crucial": false,
          "min_grade": "C",
          "credits": 4,
          "courses": [

          ]
        },
        {
          "name": "Minor or 2nd Major Requirement",
          "crucial": false,
          "min_grade": "C",
          "credits": 3,
          "courses": [

          ]
        },
        {
          "name": "Elective any Level",
          "crucial": false,
          "min_grade": "D-",
          "credits": 2,
          "courses": [

          ]
        }
      ]
    },
    {
      "requirements": [
        {
          "name": "HIST 300-400 level",
          "crucial": false,
          "min_grade": "C",
          "credits": 3,
          "courses": [

          ]
        },
        {
          "name": "HIST 300-400 level (491/492)",
          "crucial": false,
          "min_grade": "C",
          "credits": 3,
          "courses": [

          ]
        },
        {
          "name": "Minor or 2nd Major Requirement",
          "crucial": false,
          "min_grade": "C",
          "credits": 3,
          "courses": [

          ]
        },
        {
          "name": "Upper Division Elective",
          "crucial": false,
          "min_grade": "D-",
          "credits": 3,
          "courses": [

          ]
        },
        {
          "name": "Upper Division Elective",
          "crucial": false,
          "min_grade": "D-",
          "credits": 3,
          "courses": [

          ]
        }
      ]
    },
    {
      "requirements": [
        {
          "name": "HIST 300-400 level (491/492)",
          "crucial": false,
          "min_grade": "C",
          "credits": 3,
          "courses": [

          ]
        },
        {
          "name": "Minor or 2nd Major Requirement",
          "crucial": false,
          "min_grade": "C",
          "credits": 3,
          "courses": [

          ]
        },
        {
          "name": "Upper Division Elective",
          "crucial": false,
          "min_grade": "D-",
          "credits": 3,
          "courses": [

          ]
        },
        {
          "name": "Upper Division Elective",
          "crucial": false,
          "min_grade": "D-",
          "credits": 3,
          "courses": [

          ]
        },
        {
          "name": "Upper Division Elective",
          "crucial": false,
          "min_grade": "D-",
          "credits": 3,
          "courses": [

          ]
        }
      ]
    },
    {
      "requirements": [
        {
          "name": "HIST 300-400 level (491/492)",
          "crucial": false,
          "min_grade": "C",
          "credits": 3,
          "courses": [

          ]
        },
        {
          "name": "Minor or 2nd Major Requirement",
          "crucial": false,
          "min_grade": "C",
          "credits": 3,
          "courses": [

          ]
        },
        {
          "name": "Elective any Level",
          "crucial": false,
          "min_grade": "D-",
          "credits": 3,
          "courses": [

          ]
        },
        {
          "name": "Elective any Level",
          "crucial": false,
          "min_grade": "D-",
          "credits": 3,
          "courses": [

          ]
        },
        {
          "name": "Elective any Level",
          "crucial": false,
          "min_grade": "D-",
          "credits": 3,
          "courses": [

          ]
        }
      ]
    }
  ]
}