{
  "name": "Interdisciplinary Film & Digital Media (Critical Studies)",
  "degree_type": "4 Year Plan",
  "degree_awarded": "BFA",
  "notes": [

  ],
  "terms": [
    {
      "requirements": [
        {
          "name": "IFDM 105L: Inter and New Media Studies I",
          "crucial": false,
          "min_grade": "C",
          "credits": 3,
          "courses": [
            {
              "number": "IFDM 105L",
              "title": "Inter & New Media I"
            }
          ]
        },
        {
          "name": "AMST 182: Introduction to Environment",
          "crucial": false,
          "min_grade": "C",
          "credits": 3,
          "courses": [
            {
              "number": "AMST 182",
              "title": "Intro Envir Sci Tech"
            }
          ]
        },
        {
          "name": "ENGL 110: Accelerated Composition or ENGL 111: Composition I and ENGL 112: Composition II or ENGL 113: Enhanced Composition",
          "crucial": false,
          "min_grade": "C",
          "credits": 3,
          "courses": [

          ]
        },
        {
          "name": "MATH",
          "crucial": false,
          "min_grade": "C",
          "credits": 3,
          "courses": [

          ]
        },
        {
          "name": "Social and Behavioral Science",
          "crucial": false,
          "min_grade": "C",
          "credits": 3,
          "courses": [

          ]
        }
      ]
    },
    {
      "requirements": [
        {
          "name": "CS 105L: Introduction to Computer Programming",
          "crucial": false,
          "min_grade": "C",
          "credits": 3,
          "courses": [
            {
              "number": "CS 105L",
              "title": "Introduction to Computer Programming"
            }
          ]
        },
        {
          "name": "PHIL 156: Reasoning and Critical Thinking",
          "crucial": false,
          "min_grade": "C",
          "credits": 3,
          "courses": [
            {
              "number": "PHIL 156",
              "title": "Reasoning & Critical Thinking"
            }
          ]
        },
        {
          "name": "ENGL 120: Composition III",
          "crucial": false,
          "min_grade": "C",
          "credits": 3,
          "courses": [

          ]
        },
        {
          "name": "Physical and Natural Science",
          "crucial": false,
          "min_grade": "C",
          "credits": 4,
          "courses": [

          ]
        },
        {
          "name": "Elective in Any Field (Foreign Language)",
          "crucial": false,
          "min_grade": "C",
          "credits": 3,
          "courses": [

          ]
        }
      ]
    },
    {
      "requirements": [
        {
          "name": "IFDM 205L: Studio I: Activating Digital Space",
          "crucial": false,
          "min_grade": "C",
          "credits": 3,
          "courses": [
            {
              "number": "IFDM 205L",
              "title": "Activating Digital Space"
            }
          ]
        },
        {
          "name": "MA 210: Introduction to Film Studies",
          "crucial": false,
          "min_grade": "D-",
          "credits": 3,
          "courses": [
            {
              "number": "MA 210",
              "title": "Intro to Film Studies"
            }
          ]
        },
        {
          "name": "ARTH 252: Contemporary Art and New Media",
          "crucial": false,
          "min_grade": "D-",
          "credits": 3,
          "courses": [
            {
              "number": "ARTH 252",
              "title": "Contemporary Art & New Media"
            }
          ]
        },
        {
          "name": "Physical and Natural Science",
          "crucial": false,
          "min_grade": "C",
          "credits": 3,
          "courses": [

          ]
        },
        {
          "name": "Elective in Any Field (Foreign Language)",
          "crucial": false,
          "min_grade": "C",
          "credits": 3,
          "courses": [

          ]
        },
        {
          "name": "HIST 101: Western Civilization to 1648",
          "crucial": false,
          "min_grade": "C",
          "credits": 3,
          "courses": [
            {
              "number": "HIST 101",
              "title": "Western Civilization to 1648"
            }
          ]
        }
      ]
    },
    {
      "requirements": [
        {
          "name": "IFDM 210: Introduction to Modeling and Postproduction",
          "crucial": false,
          "min_grade": "C",
          "credits": 3,
          "courses": [
            {
              "number": "IFDM 210",
              "title": "Intro Modeling & Postproduct"
            }
          ]
        },
        {
          "name": "MA 326: History of Film I: Silent OR MA 327: History of Film II: Sound",
          "crucial": false,
          "min_grade": "D-",
          "credits": 3,
          "courses": [
            {
              "number": "MA 326",
              "title": "History of Film I : Silent"
            },
            {
              "number": "MA 327",
              "title": "History of Film II : Sound"
            }
          ]
        },
        {
          "name": "IFDM Elective",
          "crucial": false,
          "min_grade": "D-",
          "credits": 6,
          "courses": [

          ]
        },
        {
          "name": "HIST 102: Western Civilization Post 1648",
          "crucial": false,
          "min_grade": "C",
          "credits": 3,
          "courses": [
            {
              "number": "HIST 102",
              "title": "Western Civilization post 1648"
            }
          ]
        },
        {
          "name": "Elective in Any Field (Foreign Language)",
          "crucial": false,
          "min_grade": "C",
          "credits": 3,
          "courses": [

          ]
        }
      ]
    },
    {
      "requirements": [
        {
          "name": "IFDM 300: Critical Intermediations",
          "crucial": false,
          "min_grade": "C",
          "credits": 3,
          "courses": [
            {
              "number": "IFDM 300",
              "title": "Critical Intermediations"
            }
          ]
        },
        {
          "name": "ARTH 250: Modern Art",
          "crucial": false,
          "min_grade": "D-",
          "credits": 3,
          "courses": [
            {
              "number": "ARTH 250",
              "title": "Modern Art"
            }
          ]
        },
        {
          "name": "IFDM Elective",
          "crucial": false,
          "min_grade": "D-",
          "credits": 3,
          "courses": [

          ]
        },
        {
          "name": "Foreign Language",
          "crucial": false,
          "min_grade": "C",
          "credits": 3,
          "courses": [

          ]
        },
        {
          "name": "Elective in Any Field",
          "crucial": false,
          "min_grade": "D-",
          "credits": 3,
          "courses": [

          ]
        }
      ]
    },
    {
      "requirements": [
        {
          "name": "IFDM 310: Studio II: Writing Digital Narrative",
          "crucial": false,
          "min_grade": "C",
          "credits": 3,
          "courses": [
            {
              "number": "IFDM 310",
              "title": "Writing Digital Narrative"
            }
          ]
        },
        {
          "name": "MA 331: Film Theory",
          "crucial": false,
          "min_grade": "D-",
          "credits": 3,
          "courses": [
            {
              "number": "MA 331",
              "title": "Film Theory"
            }
          ]
        },
        {
          "name": "IFDM Elective",
          "crucial": false,
          "min_grade": "D-",
          "credits": 6,
          "courses": [

          ]
        },
        {
          "name": "Elective in any Field",
          "crucial": false,
          "min_grade": "D-",
          "credits": 2,
          "courses": [

          ]
        },
        {
          "name": "Elective in Any Field",
          "crucial": false,
          "min_grade": "D-",
          "credits": 1,
          "courses": [

          ]
        }
      ]
    },
    {
      "requirements": [
        {
          "name": "IFDM 400: Ethics",
          "crucial": false,
          "min_grade": "C",
          "credits": 3,
          "courses": [
            {
              "number": "IFDM 400",
              "title": "Ethics, Science & Technology"
            }
          ]
        },
        {
          "name": "IFDM 450: IFDM Capstone I Senior Projects Course",
          "crucial": false,
          "min_grade": "C",
          "credits": 4,
          "courses": [
            {
              "number": "IFDM 450",
              "title": "IFDM Capstone I"
            }
          ]
        },
        {
          "name": "IFDM Elective",
          "crucial": false,
          "min_grade": "D-",
          "credits": 9,
          "courses": [

          ]
        }
      ]
    },
    {
      "requirements": [
        {
          "name": "IFDM 410: The Business and Law of Film and New Media",
          "crucial": false,
          "min_grade": "C",
          "credits": 3,
          "courses": [
            {
              "number": "IFDM 410",
              "title": "Bus & Law of Film & New Media"
            }
          ]
        },
        {
          "name": "IFDM 451: IFDM Capstone II Senior Projects Course",
          "crucial": false,
          "min_grade": "C",
          "credits": 4,
          "courses": [
            {
              "number": "IFDM 451",
              "title": "IFDM Capstone II"
            }
          ]
        },
        {
          "name": "IFDM Elective",
          "crucial": false,
          "min_grade": "D-",
          "credits": 9,
          "courses": [

          ]
        }
      ]
    }
  ]
}