{
  "name": "Languages",
  "degree_type": "4 Year Plan",
  "degree_awarded": "BA",
  "notes": [
    {
      "note": "Keep in mind that minimum grades on road map are for individual coursework only.  Students must maintain a minimum of a 2.0 cumulative grade point average for admission to and graduation from the College of Arts and Sciences.  Minimums listed for the individual courses do NOT meet the cumulative minimum."
    },
    {
      "note": "*Language 1 and 2 From the following languages: Chinese, French, German, Greek, Italian, Japanese, Latin, Portuguese, Russian, & Spanish\n** Language 3 from any not chose for 1 and 2 or Navajo, Signed Language Studies, Swahili, or Arabic\nA list of acceptable coursework for the Additional Major hours can be found on the department website or in person."
    }
  ],
  "terms": [
    {
      "requirements": [
        {
          "name": "LATN or GREK 101",
          "crucial": false,
          "min_grade": "C",
          "credits": 3,
          "courses": [

          ]
        },
        {
          "name": "ENGL 110: Accelerated Composition or ENGL 111: Composition I and ENGL 112: Composition II or ENGL 113: Enhanced Composition",
          "crucial": false,
          "min_grade": "C",
          "credits": 3,
          "courses": [

          ]
        },
        {
          "name": "Language 1: 101",
          "crucial": false,
          "min_grade": "C",
          "credits": 3,
          "courses": [

          ]
        },
        {
          "name": "Language 2: 101",
          "crucial": false,
          "min_grade": "C",
          "credits": 3,
          "courses": [

          ]
        },
        {
          "name": "MATH",
          "crucial": false,
          "min_grade": "C",
          "credits": 3,
          "courses": [

          ]
        },
        {
          "name": "Freshman Academic Choice",
          "crucial": false,
          "min_grade": "D-",
          "credits": 3,
          "courses": [

          ]
        }
      ]
    },
    {
      "requirements": [
        {
          "name": "Language 1: 102",
          "crucial": false,
          "min_grade": "C",
          "credits": 3,
          "courses": [

          ]
        },
        {
          "name": "Language 2: 102",
          "crucial": false,
          "min_grade": "C",
          "credits": 3,
          "courses": [

          ]
        },
        {
          "name": "ENGL 120: Composition III",
          "crucial": false,
          "min_grade": "C",
          "credits": 3,
          "courses": [

          ]
        },
        {
          "name": "Physical and Natural Science",
          "crucial": false,
          "min_grade": "C",
          "credits": 4,
          "courses": [

          ]
        }
      ]
    },
    {
      "requirements": [
        {
          "name": "Language 1: 201",
          "crucial": false,
          "min_grade": "C",
          "credits": 3,
          "courses": [

          ]
        },
        {
          "name": "Language 2: 201",
          "crucial": false,
          "min_grade": "C",
          "credits": 3,
          "courses": [

          ]
        },
        {
          "name": "Language 3: Any Level",
          "crucial": false,
          "min_grade": "C",
          "credits": 3,
          "courses": [

          ]
        },
        {
          "name": "CJ 130 or PHIL 156 or ENGL 219 or ENGL 220",
          "crucial": false,
          "min_grade": "C",
          "credits": 3,
          "courses": [
            {
              "number": "CJ 130",
              "title": "Public Speaking"
            },
            {
              "number": "ENGL 219",
              "title": "Tech & Professional Writing"
            },
            {
              "number": "ENGL 220",
              "title": "Expository Writing"
            },
            {
              "number": "PHIL 156",
              "title": "Reasoning & Critical Thinking"
            }
          ]
        },
        {
          "name": "Social Behavioral Science",
          "crucial": false,
          "min_grade": "C",
          "credits": 3,
          "courses": [

          ]
        }
      ]
    },
    {
      "requirements": [
        {
          "name": "Language 1: 202",
          "crucial": false,
          "min_grade": "C",
          "credits": 3,
          "courses": [

          ]
        },
        {
          "name": "Language 2: 202",
          "crucial": false,
          "min_grade": "C",
          "credits": 3,
          "courses": [

          ]
        },
        {
          "name": "MLNG 101: Approaches to Languages and Cultures or LING 301: Introduction to Linguistic Analysis",
          "crucial": false,
          "min_grade": "C",
          "credits": 3,
          "courses": [
            {
              "number": "LING 301",
              "title": "Intro to Linguistic Analysis"
            }
          ]
        },
        {
          "name": "Language 3: Any Level",
          "crucial": false,
          "min_grade": "C",
          "credits": 3,
          "courses": [

          ]
        },
        {
          "name": "Humanities",
          "crucial": false,
          "min_grade": "C",
          "credits": 3,
          "courses": [

          ]
        }
      ]
    },
    {
      "requirements": [
        {
          "name": "Language 1: 300 or Above",
          "crucial": false,
          "min_grade": "C",
          "credits": 3,
          "courses": [

          ]
        },
        {
          "name": "Language 2: 300 or Above",
          "crucial": false,
          "min_grade": "C",
          "credits": 3,
          "courses": [

          ]
        },
        {
          "name": "Additional Major Hours - see list",
          "crucial": false,
          "min_grade": "C",
          "credits": 3,
          "courses": [

          ]
        },
        {
          "name": "Social Behavioral Science",
          "crucial": false,
          "min_grade": "C",
          "credits": 3,
          "courses": [

          ]
        },
        {
          "name": "Fine Arts",
          "crucial": false,
          "min_grade": "C",
          "credits": 3,
          "courses": [

          ]
        }
      ]
    },
    {
      "requirements": [
        {
          "name": "Language 1: 300 or Above",
          "crucial": false,
          "min_grade": "C",
          "credits": 3,
          "courses": [

          ]
        },
        {
          "name": "Language 2: 300 or Above",
          "crucial": false,
          "min_grade": "C",
          "credits": 3,
          "courses": [

          ]
        },
        {
          "name": "Humanities",
          "crucial": false,
          "min_grade": "C",
          "credits": 3,
          "courses": [

          ]
        },
        {
          "name": "Upper Division Elective",
          "crucial": false,
          "min_grade": "C",
          "credits": 6,
          "courses": [

          ]
        }
      ]
    },
    {
      "requirements": [
        {
          "name": "Language 1: 300 or Above",
          "crucial": false,
          "min_grade": "C",
          "credits": 3,
          "courses": [

          ]
        },
        {
          "name": "Language 2: 300 or Above",
          "crucial": false,
          "min_grade": "C",
          "credits": 3,
          "courses": [

          ]
        },
        {
          "name": "Additional Major Hours -  see list",
          "crucial": false,
          "min_grade": "C",
          "credits": 3,
          "courses": [

          ]
        },
        {
          "name": "Physical and Natural Science",
          "crucial": false,
          "min_grade": "C",
          "credits": 3,
          "courses": [

          ]
        },
        {
          "name": "Upper Division Elective",
          "crucial": false,
          "min_grade": "C",
          "credits": 3,
          "courses": [

          ]
        }
      ]
    },
    {
      "requirements": [
        {
          "name": "Additional Major Hours -  see list",
          "crucial": false,
          "min_grade": "C",
          "credits": 6,
          "courses": [

          ]
        },
        {
          "name": "Upper Division Elective",
          "crucial": false,
          "min_grade": "C",
          "credits": 8,
          "courses": [

          ]
        }
      ]
    }
  ]
}