{
  "name": "Music (Performance Concentration, with Vocal Emphasis)",
  "degree_type": "4 Year Plan",
  "degree_awarded": "BM",
  "notes": [

  ],
  "terms": [
    {
      "requirements": [
        {
          "name": "MUS 101: Concert Music",
          "crucial": false,
          "min_grade": "CR",
          "credits": 0,
          "courses": [
            {
              "number": "MUS 101",
              "title": "Concert Music"
            }
          ]
        },
        {
          "name": "APMS 101: Studio Instruction for the Performance Concentration",
          "crucial": false,
          "min_grade": "C",
          "credits": 2,
          "courses": [
            {
              "number": "APMS 101",
              "title": "Perf Concntratn:"
            }
          ]
        },
        {
          "name": "MUS 150: Music Theory I",
          "crucial": false,
          "min_grade": "C",
          "credits": 2,
          "courses": [
            {
              "number": "MUS 150",
              "title": "Music Theory I"
            }
          ]
        },
        {
          "name": "MUS 150L: Music Theory I Aural Lab",
          "crucial": false,
          "min_grade": "C",
          "credits": 2,
          "courses": [
            {
              "number": "MUS 150L",
              "title": "Music Theory I Aural Lab"
            }
          ]
        },
        {
          "name": "MUS 111: Group Piano I",
          "crucial": false,
          "min_grade": "C",
          "credits": 1,
          "courses": [

          ]
        },
        {
          "name": "MUS 209: Diction for Singers I",
          "crucial": false,
          "min_grade": "C",
          "credits": 2,
          "courses": [
            {
              "number": "MUS 209",
              "title": "Diction for Singers I"
            }
          ]
        },
        {
          "name": "MUS 243: Concert Choir",
          "crucial": false,
          "min_grade": "C",
          "credits": 1,
          "courses": [
            {
              "number": "MUS 243",
              "title": "Concert Choir"
            }
          ]
        },
        {
          "name": "ENGL 110: Accelerated Composition or ENGL 111: Composition I and ENGL 112: Composition II or ENGL 113: Enhanced Composition",
          "crucial": false,
          "min_grade": "C",
          "credits": 3,
          "courses": [

          ]
        },
        {
          "name": "MATH",
          "crucial": false,
          "min_grade": "C",
          "credits": 3,
          "courses": [

          ]
        }
      ]
    },
    {
      "requirements": [
        {
          "name": "MUS 101: Concert Music",
          "crucial": false,
          "min_grade": "CR",
          "credits": 0,
          "courses": [
            {
              "number": "MUS 101",
              "title": "Concert Music"
            }
          ]
        },
        {
          "name": "APMS 102: Studio Instruction for the Performance Concentration*",
          "crucial": false,
          "min_grade": "C",
          "credits": 2,
          "courses": [
            {
              "number": "APMS 102",
              "title": "Perf Concntratn:"
            }
          ]
        },
        {
          "name": "MUS 152: Music Theory II",
          "crucial": false,
          "min_grade": "C",
          "credits": 2,
          "courses": [
            {
              "number": "MUS 152",
              "title": "Music Theory II"
            }
          ]
        },
        {
          "name": "MUS 152L: Music Theory II Aural Lab",
          "crucial": false,
          "min_grade": "C",
          "credits": 2,
          "courses": [
            {
              "number": "MUS 152L",
              "title": "Music Theory II Aural Lab"
            }
          ]
        },
        {
          "name": "MUS 112: Group Piano II",
          "crucial": false,
          "min_grade": "C",
          "credits": 1,
          "courses": [
            {
              "number": "MUS 112",
              "title": "Group Piano II"
            }
          ]
        },
        {
          "name": "MUS 210: Diction for Singers II",
          "crucial": false,
          "min_grade": "C",
          "credits": 2,
          "courses": [
            {
              "number": "MUS 210",
              "title": "Diction for Singers II"
            }
          ]
        },
        {
          "name": "MUS 243: Concert Choir",
          "crucial": false,
          "min_grade": "C",
          "credits": 1,
          "courses": [
            {
              "number": "MUS 243",
              "title": "Concert Choir"
            }
          ]
        },
        {
          "name": "ENGL 120: Composition III",
          "crucial": false,
          "min_grade": "C",
          "credits": 3,
          "courses": [

          ]
        },
        {
          "name": "Physical & Natural Science",
          "crucial": false,
          "min_grade": "C",
          "credits": 3,
          "courses": [

          ]
        }
      ]
    },
    {
      "requirements": [
        {
          "name": "MUS 101: Concert Music",
          "crucial": false,
          "min_grade": "CR",
          "credits": 0,
          "courses": [
            {
              "number": "MUS 101",
              "title": "Concert Music"
            }
          ]
        },
        {
          "name": "APMS 201: Studio Instruction for the Performance Concentration",
          "crucial": false,
          "min_grade": "C",
          "credits": 2,
          "courses": [
            {
              "number": "APMS 201",
              "title": "Perf Concntratn:"
            }
          ]
        },
        {
          "name": "MUS 250: Music Theory III",
          "crucial": false,
          "min_grade": "C",
          "credits": 2,
          "courses": [
            {
              "number": "MUS 250",
              "title": "Music Theory III"
            }
          ]
        },
        {
          "name": "MUS 250L: Music Theory III Aural Lab",
          "crucial": false,
          "min_grade": "C",
          "credits": 2,
          "courses": [
            {
              "number": "MUS 250L",
              "title": "Music Theory III Aural Lab"
            }
          ]
        },
        {
          "name": "MUS 211: Group Piano III",
          "crucial": false,
          "min_grade": "C",
          "credits": 1,
          "courses": [
            {
              "number": "MUS 211",
              "title": "Group Piano III"
            }
          ]
        },
        {
          "name": "MUS 243: Concert Choir",
          "crucial": false,
          "min_grade": "C",
          "credits": 1,
          "courses": [
            {
              "number": "MUS 243",
              "title": "Concert Choir"
            }
          ]
        },
        {
          "name": "FREN 101: Elementary French I",
          "crucial": false,
          "min_grade": "C",
          "credits": 3,
          "courses": [
            {
              "number": "FREN 101",
              "title": "Elementary French"
            }
          ]
        },
        {
          "name": "HIST 101: Western Civilization to 1648",
          "crucial": false,
          "min_grade": "C",
          "credits": 3,
          "courses": [
            {
              "number": "HIST 101",
              "title": "Western Civilization to 1648"
            }
          ]
        },
        {
          "name": "Social & Behavioral Science",
          "crucial": false,
          "min_grade": "C",
          "credits": 3,
          "courses": [

          ]
        }
      ]
    },
    {
      "requirements": [
        {
          "name": "MUS 101: Concert Music",
          "crucial": false,
          "min_grade": "CR",
          "credits": 0,
          "courses": [
            {
              "number": "MUS 101",
              "title": "Concert Music"
            }
          ]
        },
        {
          "name": "APMS 202: Studio Instruction for the Performance Concentration",
          "crucial": false,
          "min_grade": "C",
          "credits": 2,
          "courses": [
            {
              "number": "APMS 202",
              "title": "Perf Concntratn:"
            }
          ]
        },
        {
          "name": "MUS 252: Music Theory IV",
          "crucial": false,
          "min_grade": "C",
          "credits": 2,
          "courses": [
            {
              "number": "MUS 252",
              "title": "Music Theory IV"
            }
          ]
        },
        {
          "name": "MUS 252L: Music Theory IV Aural Lab",
          "crucial": false,
          "min_grade": "C",
          "credits": 2,
          "courses": [
            {
              "number": "MUS 252L",
              "title": "Music Theory IV Aural Lab"
            }
          ]
        },
        {
          "name": "MUS 212: Group Piano IV",
          "crucial": false,
          "min_grade": "C",
          "credits": 1,
          "courses": [
            {
              "number": "MUS 212",
              "title": "Group Piano IV"
            }
          ]
        },
        {
          "name": "MUS 214: Piano Proficiency",
          "crucial": false,
          "min_grade": "CR",
          "credits": 0,
          "courses": [
            {
              "number": "MUS 214",
              "title": "Piano Proficiency"
            }
          ]
        },
        {
          "name": "MUS 243: Concert Choir",
          "crucial": false,
          "min_grade": "C",
          "credits": 1,
          "courses": [
            {
              "number": "MUS 243",
              "title": "Concert Choir"
            }
          ]
        },
        {
          "name": "ENGL 220: Expository Writing",
          "crucial": false,
          "min_grade": "C",
          "credits": 3,
          "courses": [
            {
              "number": "ENGL 220",
              "title": "Expository Writing"
            }
          ]
        },
        {
          "name": "GRMN 101: Elementary German I",
          "crucial": false,
          "min_grade": "C",
          "credits": 3,
          "courses": [
            {
              "number": "GRMN 101",
              "title": "Basic German I"
            }
          ]
        },
        {
          "name": "HIST 102: Western Civilization Post 1648",
          "crucial": false,
          "min_grade": "C",
          "credits": 3,
          "courses": [
            {
              "number": "HIST 102",
              "title": "Western Civilization post 1648"
            }
          ]
        }
      ]
    },
    {
      "requirements": [
        {
          "name": "MUS 101: Concert Music",
          "crucial": false,
          "min_grade": "CR",
          "credits": 0,
          "courses": [
            {
              "number": "MUS 101",
              "title": "Concert Music"
            }
          ]
        },
        {
          "name": "APMS 301: Studio Instruction for the Performance Concentration",
          "crucial": false,
          "min_grade": "C",
          "credits": 3,
          "courses": [
            {
              "number": "APMS 301",
              "title": "Perf Concntratn:"
            }
          ]
        },
        {
          "name": "MUS 453: Orchestration",
          "crucial": false,
          "min_grade": "C",
          "credits": 2,
          "courses": [
            {
              "number": "MUS 453",
              "title": "Orchestration"
            }
          ]
        },
        {
          "name": "MUS 361: History of Music I",
          "crucial": false,
          "min_grade": "C",
          "credits": 3,
          "courses": [
            {
              "number": "MUS 361",
              "title": "History of Music I"
            }
          ]
        },
        {
          "name": "MUS 388: Vocal Pedagogy",
          "crucial": false,
          "min_grade": "C",
          "credits": 2,
          "courses": [
            {
              "number": "MUS 388",
              "title": "Mus Pedagogy:"
            }
          ]
        },
        {
          "name": "MUS 330: Opera Studio",
          "crucial": false,
          "min_grade": "C",
          "credits": 1,
          "courses": [
            {
              "number": "MUS 330",
              "title": "Opera Studio"
            }
          ]
        },
        {
          "name": "MUS 243: Concert Choir",
          "crucial": false,
          "min_grade": "C",
          "credits": 1,
          "courses": [
            {
              "number": "MUS 243",
              "title": "Concert Choir"
            }
          ]
        },
        {
          "name": "ITAL 175: Accelerated Elementary Italian",
          "crucial": false,
          "min_grade": "C",
          "credits": 6,
          "courses": [
            {
              "number": "ITAL 175",
              "title": "Accelerated Elementary Italian"
            }
          ]
        }
      ]
    },
    {
      "requirements": [
        {
          "name": "MUS 101: Concert Music",
          "crucial": false,
          "min_grade": "CR",
          "credits": 0,
          "courses": [
            {
              "number": "MUS 101",
              "title": "Concert Music"
            }
          ]
        },
        {
          "name": "APMS 302: Studio Instruction for the Performance Concentration",
          "crucial": false,
          "min_grade": "C",
          "credits": 3,
          "courses": [
            {
              "number": "APMS 302",
              "title": "Perf Concntratn:"
            }
          ]
        },
        {
          "name": "APMS 391: Junior Recital",
          "crucial": false,
          "min_grade": "CR",
          "credits": 0,
          "courses": [
            {
              "number": "APMS 391",
              "title": "Jr Recital:"
            }
          ]
        },
        {
          "name": "MUS 362: History of Music II",
          "crucial": false,
          "min_grade": "C",
          "credits": 3,
          "courses": [
            {
              "number": "MUS 362",
              "title": "History of Music II"
            }
          ]
        },
        {
          "name": "MUS 330: Opera Studio",
          "crucial": false,
          "min_grade": "C",
          "credits": 1,
          "courses": [
            {
              "number": "MUS 330",
              "title": "Opera Studio"
            }
          ]
        },
        {
          "name": "MUS 243: Concert Choir",
          "crucial": false,
          "min_grade": "C",
          "credits": 1,
          "courses": [
            {
              "number": "MUS 243",
              "title": "Concert Choir"
            }
          ]
        },
        {
          "name": "French or German or Italian",
          "crucial": false,
          "min_grade": "C",
          "credits": 3,
          "courses": [

          ]
        },
        {
          "name": "Physical & Natural Science",
          "crucial": false,
          "min_grade": "C",
          "credits": 4,
          "courses": [

          ]
        },
        {
          "name": "Fine Arts outside the major",
          "crucial": false,
          "min_grade": "D-",
          "credits": 3,
          "courses": [

          ]
        }
      ]
    },
    {
      "requirements": [
        {
          "name": "APMS 401: Studio Instruction for the Performance Concentration",
          "crucial": false,
          "min_grade": "C",
          "credits": 4,
          "courses": [
            {
              "number": "APMS 401",
              "title": "Perf Concntratn:"
            }
          ]
        },
        {
          "name": "APMS 403: Vocal Coaching",
          "crucial": false,
          "min_grade": "CR",
          "credits": 0,
          "courses": [

          ]
        },
        {
          "name": "MUS 309 OR MUS 325 OR MUS 405 OR MUS 406 OR MUS 439",
          "crucial": false,
          "min_grade": "C",
          "credits": 2,
          "courses": [
            {
              "number": "MUS 309",
              "title": "Form and Analysis"
            },
            {
              "number": "MUS 325",
              "title": "Post-Tonal Theory"
            },
            {
              "number": "MUS 405",
              "title": "16th-Century Counterpoint"
            },
            {
              "number": "MUS 406",
              "title": "18th-Century Counterpoint"
            },
            {
              "number": "MUS 439",
              "title": "ST:Music Theory"
            }
          ]
        },
        {
          "name": "MUS 363: Conducting",
          "crucial": false,
          "min_grade": "C",
          "credits": 2,
          "courses": [
            {
              "number": "MUS 363",
              "title": "Conducting"
            }
          ]
        },
        {
          "name": "MUS 449: Vocal Repertory",
          "crucial": false,
          "min_grade": "C",
          "credits": 2,
          "courses": [
            {
              "number": "MUS 449",
              "title": "Mus Rep:"
            }
          ]
        },
        {
          "name": "MUS 413 OR MUS 414 OR MUS 415 OR MUS 416 OR MUS 437",
          "crucial": false,
          "min_grade": "C",
          "credits": 3,
          "courses": [
            {
              "number": "MUS 413",
              "title": "St in Medieval & Renaiss Music"
            },
            {
              "number": "MUS 414",
              "title": "Studies in Baroque Music"
            },
            {
              "number": "MUS 415",
              "title": "St in Classic & Romantic Music"
            },
            {
              "number": "MUS 416",
              "title": "St in Twentieth-Century Music"
            },
            {
              "number": "MUS 437",
              "title": "ST: Music Lit"
            }
          ]
        },
        {
          "name": "MUS 311 OR MUS 380 OR MUS 412 OR MUS 421 OR MUS 481",
          "crucial": false,
          "min_grade": "C",
          "credits": 2,
          "courses": [
            {
              "number": "MUS 311",
              "title": "Computer Applications I"
            },
            {
              "number": "MUS 380",
              "title": "Recording Techniques I"
            },
            {
              "number": "MUS 412",
              "title": "Computer Applications II"
            },
            {
              "number": "MUS 421",
              "title": "Max Programming for Musicians"
            },
            {
              "number": "MUS 481",
              "title": "Recording Techniques II"
            }
          ]
        },
        {
          "name": "MUS 243: Concert Choir",
          "crucial": false,
          "min_grade": "C",
          "credits": 1,
          "courses": [
            {
              "number": "MUS 243",
              "title": "Concert Choir"
            }
          ]
        },
        {
          "name": "MUS 330: Opera Studio",
          "crucial": false,
          "min_grade": "C",
          "credits": 1,
          "courses": [
            {
              "number": "MUS 330",
              "title": "Opera Studio"
            }
          ]
        }
      ]
    },
    {
      "requirements": [
        {
          "name": "APMS 402: Studio Instruction for the Performance Concentration",
          "crucial": false,
          "min_grade": "C",
          "credits": 4,
          "courses": [
            {
              "number": "APMS 402",
              "title": "Perf Concntratn:"
            }
          ]
        },
        {
          "name": "APMS 403: Vocal Coaching",
          "crucial": false,
          "min_grade": "CR",
          "credits": 0,
          "courses": [

          ]
        },
        {
          "name": "APMS 491: Senior Recital",
          "crucial": false,
          "min_grade": "CR",
          "credits": 0,
          "courses": [
            {
              "number": "APMS 491",
              "title": "Sr Recital:"
            }
          ]
        },
        {
          "name": "MUS 223 OR MUS 422 OR MUS 438 OR MUS 444 OR MUS 448 OR MUSE 293",
          "crucial": false,
          "min_grade": "C",
          "credits": 3,
          "courses": [
            {
              "number": "MUS 422",
              "title": "Indigenous World Music"
            },
            {
              "number": "MUS 444",
              "title": "Anth of World Beat"
            },
            {
              "number": "MUS 448",
              "title": "Anth Music & Sound"
            },
            {
              "number": "MUSE 293",
              "title": "Multicult Awareness Mus Skills"
            }
          ]
        },
        {
          "name": "MUS 330: Opera Studio",
          "crucial": false,
          "min_grade": "C",
          "credits": 1,
          "courses": [
            {
              "number": "MUS 330",
              "title": "Opera Studio"
            }
          ]
        },
        {
          "name": "MUS 243: Concert Choir",
          "crucial": false,
          "min_grade": "C",
          "credits": 1,
          "courses": [
            {
              "number": "MUS 243",
              "title": "Concert Choir"
            }
          ]
        },
        {
          "name": "Social & Behavioral Science",
          "crucial": false,
          "min_grade": "C",
          "credits": 3,
          "courses": [

          ]
        },
        {
          "name": "Fine Arts outside major",
          "crucial": false,
          "min_grade": "D-",
          "credits": 3,
          "courses": [

          ]
        }
      ]
    }
  ]
}