{
  "name": "Nuclear Engineering",
  "degree_type": "CNM to UNM Transfer",
  "degree_awarded": "BS",
  "notes": [
    {
      "note": "Keep in mind that minimum grades on road map are for individual coursework only.  Students must maintain a minimum of a 2.0 cumulative grade point average for admission to and graduation from the College of Arts and Sciences.  Minimums listed for the individual courses do NOT meet the cumulative minimum."
    },
    {
      "note": ""
    }
  ],
  "terms": [
    {
      "requirements": [
        {
          "name": "ENG 1101: College Writing (CNM)",
          "crucial": false,
          "min_grade": "C",
          "credits": 3,
          "courses": [

          ]
        },
        {
          "name": "MATH 1710: Calculus I (CNM)",
          "crucial": true,
          "min_grade": "C",
          "credits": 4,
          "courses": [
            {
              "number": "MATH 162",
              "title": "Calculus I"
            }
          ]
        },
        {
          "name": "CHEM 1710: General Chemistry I (CNM)",
          "crucial": false,
          "min_grade": "C",
          "credits": 3,
          "courses": [
            {
              "number": "CHEM 121",
              "title": "General Chem with Lab"
            }
          ]
        },
        {
          "name": "CHEM 1792: General Chemistry I Lab (CNM)",
          "crucial": false,
          "min_grade": "C",
          "credits": 1,
          "courses": [
            {
              "number": "CHEM 123L",
              "title": "General Chemistry I Lab"
            }
          ]
        },
        {
          "name": "ENGR 2088: Engineering Specialty [UNM (NE 101)])",
          "crucial": false,
          "min_grade": "C",
          "credits": 1,
          "courses": [
            {
              "number": "NE 101",
              "title": "Introduction to NE"
            }
          ]
        },
        {
          "name": "IT 1010: Introduction to Computers (CNM)",
          "crucial": false,
          "min_grade": "C",
          "credits": 3,
          "courses": [

          ]
        },
        {
          "name": "ENGR 1010: Survey of Engineering Fields (CNM)",
          "crucial": false,
          "min_grade": "C",
          "credits": 1,
          "courses": [

          ]
        }
      ]
    },
    {
      "requirements": [
        {
          "name": "ENG 1102: Analytic and Argumentative Writing (CNM)",
          "crucial": false,
          "min_grade": "C",
          "credits": 3,
          "courses": [

          ]
        },
        {
          "name": "MATH 1715: Calculus II (CNM)",
          "crucial": true,
          "min_grade": "C",
          "credits": 4,
          "courses": [
            {
              "number": "MATH 163",
              "title": "Calculus II"
            }
          ]
        },
        {
          "name": "CHEM 1810: General Chemistry II (CNM)",
          "crucial": false,
          "min_grade": "C",
          "credits": 3,
          "courses": [
            {
              "number": "CHEM 122",
              "title": "General Chem with Lab"
            }
          ]
        },
        {
          "name": "CHEM 1892: General Chemistry II Lab (CNM)",
          "crucial": false,
          "min_grade": "C",
          "credits": 1,
          "courses": [
            {
              "number": "CHEM 124L",
              "title": "General Chemistry II Lab"
            }
          ]
        },
        {
          "name": "CSCI 1153: Programming in Matlab (CNM)",
          "crucial": false,
          "min_grade": "C",
          "credits": 4,
          "courses": [
            {
              "number": "CS 151L",
              "title": "Programming Fund Nonmajors"
            }
          ]
        },
        {
          "name": "Fine Arts (CNM)",
          "crucial": false,
          "min_grade": "C",
          "credits": 3,
          "courses": [

          ]
        }
      ]
    },
    {
      "requirements": [
        {
          "name": "PHYS 1710: Physics for Scientists and Engineers I (CNM)",
          "crucial": true,
          "min_grade": "C",
          "credits": 4,
          "courses": [
            {
              "number": "PHYC 160",
              "title": "General Physics"
            }
          ]
        },
        {
          "name": "PHYS 1792: Physics for Scientists and Engineers I Laboratory (CNM)",
          "crucial": true,
          "min_grade": "C",
          "credits": 1,
          "courses": [
            {
              "number": "PHYC 160L",
              "title": "General Physics Lab"
            }
          ]
        },
        {
          "name": "Humanities (CNM)",
          "crucial": false,
          "min_grade": "C",
          "credits": 3,
          "courses": [

          ]
        }
      ]
    },
    {
      "requirements": [
        {
          "name": "ENG 2219: Technical Writing (CNM)",
          "crucial": true,
          "min_grade": "C",
          "credits": 3,
          "courses": [
            {
              "number": "ENGL 219",
              "title": "Tech & Professional Writing"
            }
          ]
        },
        {
          "name": "MATH 2710: Calculus III (CNM)",
          "crucial": false,
          "min_grade": "C",
          "credits": 4,
          "courses": [
            {
              "number": "MATH 264",
              "title": "Calculus III"
            }
          ]
        },
        {
          "name": "PHYS 1810: Physics for Scientists and Engineers II (CNM)",
          "crucial": true,
          "min_grade": "C",
          "credits": 4,
          "courses": [
            {
              "number": "PHYC 161",
              "title": "General Physics"
            }
          ]
        },
        {
          "name": "PHYS 1892: Physics for Scientists and Engineers II Laboratory (CNM)",
          "crucial": false,
          "min_grade": "C",
          "credits": 1,
          "courses": [
            {
              "number": "PHYC 161L",
              "title": "General Physics Lab"
            }
          ]
        },
        {
          "name": "ENGR 2088: Engineering Specialty [UNM (NE 230)])",
          "crucial": false,
          "min_grade": "C",
          "credits": 3,
          "courses": [
            {
              "number": "NE 230",
              "title": "Princ Radiation Protection"
            }
          ]
        }
      ]
    },
    {
      "requirements": [
        {
          "name": "ECON 2200: Macroeconomics (CNM)",
          "crucial": false,
          "min_grade": "C",
          "credits": 3,
          "courses": [
            {
              "number": "ECON 105",
              "title": "Introductory Macroeconomics"
            }
          ]
        },
        {
          "name": "MATH 2910: Applied Ordinary Differential Equations (CNM)",
          "crucial": false,
          "min_grade": "C",
          "credits": 3,
          "courses": [
            {
              "number": "MATH 316",
              "title": "Applied Ordinary Diff Equas"
            }
          ]
        },
        {
          "name": "ENGR 2088: Engineering Specialty [UNM (NE 231)]",
          "crucial": false,
          "min_grade": "C",
          "credits": 3,
          "courses": [
            {
              "number": "NE 231",
              "title": "Princ of Nuclear Engineering"
            }
          ]
        },
        {
          "name": "ENGR 2088: Engineering Specialty [UNM (NE 213)]",
          "crucial": false,
          "min_grade": "C",
          "credits": 3,
          "courses": [
            {
              "number": "NE 213",
              "title": "Lab Electronics for NEs"
            }
          ]
        },
        {
          "name": "ENGR 2088: Engineering Specialty [UNM (NE 372)]",
          "crucial": false,
          "min_grade": "C-",
          "credits": 2,
          "courses": [
            {
              "number": "NE 372",
              "title": "Nuclear Materials Engineering"
            }
          ]
        }
      ]
    },
    {
      "requirements": [
        {
          "name": "Humanities (CNM)",
          "crucial": false,
          "min_grade": "C",
          "credits": 3,
          "courses": [

          ]
        },
        {
          "name": "Social/Behavioral Science (CNM)",
          "crucial": false,
          "min_grade": "C",
          "credits": 3,
          "courses": [

          ]
        }
      ]
    },
    {
      "requirements": [
        {
          "name": "NE 311: Introduction to Transport Phenomena",
          "crucial": true,
          "min_grade": "C-",
          "credits": 4,
          "courses": [
            {
              "number": "NE 311",
              "title": "Intro Transport Phenomena"
            }
          ]
        },
        {
          "name": "NE 315: Nuclear Engineering Analysis",
          "crucial": false,
          "min_grade": "C-",
          "credits": 3,
          "courses": [
            {
              "number": "NE 317",
              "title": "NE Analysis"
            }
          ]
        },
        {
          "name": "NE 323L: Radiation Detection and Measurement",
          "crucial": true,
          "min_grade": "C-",
          "credits": 3,
          "courses": [
            {
              "number": "NE 323L",
              "title": "Radiation Detection Measuremnt"
            }
          ]
        },
        {
          "name": "CE 202: Engineering Statics",
          "crucial": false,
          "min_grade": "C-",
          "credits": 3,
          "courses": [
            {
              "number": "CE 202",
              "title": "Engineering Statics"
            }
          ]
        },
        {
          "name": "Technical Elective",
          "crucial": false,
          "min_grade": "C-",
          "credits": 3,
          "courses": [

          ]
        }
      ]
    },
    {
      "requirements": [
        {
          "name": "NE 312: Unit Operations",
          "crucial": false,
          "min_grade": "C-",
          "credits": 3,
          "courses": [
            {
              "number": "NE 312",
              "title": "Unit Operations"
            }
          ]
        },
        {
          "name": "NE 313L: Introduction to Laboratory Techniques",
          "crucial": false,
          "min_grade": "C-",
          "credits": 3,
          "courses": [
            {
              "number": "NE 313L",
              "title": "Intro Lab Techniques for NE"
            }
          ]
        },
        {
          "name": "NE 330: Nuclear Engineering Science",
          "crucial": true,
          "min_grade": "C-",
          "credits": 2,
          "courses": [
            {
              "number": "NE 330",
              "title": "Nuclear Engr Science"
            }
          ]
        },
        {
          "name": "NE 314: Thermodynamics and Nuclear Systems",
          "crucial": true,
          "min_grade": "C-",
          "credits": 3,
          "courses": [
            {
              "number": "NE 314",
              "title": "Nuclear Systems"
            }
          ]
        },
        {
          "name": "Technical Elective",
          "crucial": false,
          "min_grade": "C-",
          "credits": 3,
          "courses": [

          ]
        }
      ]
    },
    {
      "requirements": [
        {
          "name": "NE 410: Nuclear Reactor Theory I",
          "crucial": true,
          "min_grade": "C-",
          "credits": 3,
          "courses": [
            {
              "number": "NE 410",
              "title": "Nuclear Reactor Theory I"
            }
          ]
        },
        {
          "name": "NE 464: Thermal Hydraulics of System",
          "crucial": true,
          "min_grade": "C-",
          "credits": 3,
          "courses": [
            {
              "number": "NE 464",
              "title": "Thermal-Hydraulic Nuclear Systems"
            }
          ]
        },
        {
          "name": "NE 497L: Introduction to Nuclear Engineering Design",
          "crucial": true,
          "min_grade": "C-",
          "credits": 3,
          "courses": [
            {
              "number": "NE 497L",
              "title": "Intro NE Design Lab"
            }
          ]
        },
        {
          "name": "NE 462: Monte Carlo Techniques",
          "crucial": true,
          "min_grade": "C-",
          "credits": 3,
          "courses": [
            {
              "number": "NE 462",
              "title": "Monte Carlo Techniques for Nuclear Systems"
            }
          ]
        }
      ]
    },
    {
      "requirements": [
        {
          "name": "NE 413L: Nuclear Engineering Lab",
          "crucial": true,
          "min_grade": "C-",
          "credits": 3,
          "courses": [
            {
              "number": "NE 413L",
              "title": "Nuclear Engr Lab I"
            }
          ]
        },
        {
          "name": "NE 452: Senior Seminar",
          "crucial": true,
          "min_grade": "C-",
          "credits": 1,
          "courses": [
            {
              "number": "NE 452",
              "title": "Senior Seminar"
            }
          ]
        },
        {
          "name": "NE 498L: Nuclear Engineering Design",
          "crucial": true,
          "min_grade": "C-",
          "credits": 4,
          "courses": [
            {
              "number": "NE 498L",
              "title": "Nuclear Engr Design"
            }
          ]
        },
        {
          "name": "NE 470: Nuclear Fuel Cycle and Materials",
          "crucial": true,
          "min_grade": "C-",
          "credits": 3,
          "courses": [
            {
              "number": "NE 470",
              "title": "Nuclear Fuel Cycle & Materials"
            }
          ]
        },
        {
          "name": "Foreign Language Core Course",
          "crucial": false,
          "min_grade": "C-",
          "credits": 3,
          "courses": [

          ]
        }
      ]
    }
  ]
}