{
  "name": "Physics",
  "degree_type": "CNM to UNM Transfer",
  "degree_awarded": "BS",
  "notes": [
    {
      "note": "Minimunm graduation GPA = 2.00. Keep in mind that minimum grades on road map are for individual cousework only. \n  Students must maintain a minimum of a 2.0 cumulative GPA for admission and graduation from the College of Arts and Sciences."
    }
  ],
  "terms": [
    {
      "requirements": [
        {
          "name": "ENG 1101: College Writing (CNM)",
          "crucial": false,
          "min_grade": "C",
          "credits": 3,
          "courses": [

          ]
        },
        {
          "name": "MATH 1710: Calculus I (CNM)",
          "crucial": true,
          "min_grade": "C",
          "credits": 4,
          "courses": [
            {
              "number": "MATH 162",
              "title": "Calculus I"
            }
          ]
        },
        {
          "name": "CHEM 1710: General Chemistry I (CNM)",
          "crucial": false,
          "min_grade": "C",
          "credits": 3,
          "courses": [
            {
              "number": "CHEM 121",
              "title": "General Chem with Lab"
            }
          ]
        },
        {
          "name": "CHEM 1792: General Chemistry I Lab (CNM)",
          "crucial": false,
          "min_grade": "C",
          "credits": 1,
          "courses": [
            {
              "number": "CHEM 123L",
              "title": "General Chemistry I Lab"
            }
          ]
        },
        {
          "name": "IT 1010: Introduction to Computers (CNM)",
          "crucial": false,
          "min_grade": "C",
          "credits": 3,
          "courses": [

          ]
        },
        {
          "name": "Social/Behavioral Science (CNM)",
          "crucial": false,
          "min_grade": "C",
          "credits": 3,
          "courses": [

          ]
        }
      ]
    },
    {
      "requirements": [
        {
          "name": "PHYS 1710: Physics for Scientists and Engineers I (CNM)",
          "crucial": true,
          "min_grade": "C",
          "credits": 4,
          "courses": [
            {
              "number": "PHYC 160",
              "title": "General Physics"
            }
          ]
        },
        {
          "name": "PHYS 1792: Physics for Scientists and Engineers I Laboratory (CNM)",
          "crucial": true,
          "min_grade": "C",
          "credits": 1,
          "courses": [
            {
              "number": "PHYC 160L",
              "title": "General Physics Lab"
            }
          ]
        },
        {
          "name": "ENG 1102: Analytic and Argumentative Writing (CNM)",
          "crucial": false,
          "min_grade": "C",
          "credits": 3,
          "courses": [

          ]
        },
        {
          "name": "MATH 1715: Calculus II (CNM)",
          "crucial": true,
          "min_grade": "C",
          "credits": 4,
          "courses": [
            {
              "number": "MATH 163",
              "title": "Calculus II"
            }
          ]
        },
        {
          "name": "CHEM 1810: General Chemistry II (CNM)",
          "crucial": false,
          "min_grade": "C",
          "credits": 3,
          "courses": [
            {
              "number": "CHEM 122",
              "title": "General Chem with Lab"
            }
          ]
        },
        {
          "name": "CHEM 1892: General Chemistry II Lab (CNM)",
          "crucial": false,
          "min_grade": "C",
          "credits": 1,
          "courses": [
            {
              "number": "CHEM 124L",
              "title": "General Chemistry II Lab"
            }
          ]
        }
      ]
    },
    {
      "requirements": [
        {
          "name": "PHYS 1810: Physics for Scientists and Engineers II (CNM)",
          "crucial": true,
          "min_grade": "C",
          "credits": 4,
          "courses": [
            {
              "number": "PHYC 161",
              "title": "General Physics"
            }
          ]
        },
        {
          "name": "PHYS 1892: Physics for Scientists and Engineers II Laboratory (CNM)",
          "crucial": false,
          "min_grade": "C",
          "credits": 1,
          "courses": [
            {
              "number": "PHYC 161L",
              "title": "General Physics Lab"
            }
          ]
        },
        {
          "name": "COMM 1130: Public Speaking (CNM)",
          "crucial": false,
          "min_grade": "C",
          "credits": 3,
          "courses": [
            {
              "number": "CJ 130",
              "title": "Public Speaking"
            }
          ]
        },
        {
          "name": "Fine Arts (CNM)",
          "crucial": false,
          "min_grade": "C",
          "credits": 3,
          "courses": [

          ]
        },
        {
          "name": "Humanities (CNM)",
          "crucial": false,
          "min_grade": "C",
          "credits": 3,
          "courses": [

          ]
        }
      ]
    },
    {
      "requirements": [
        {
          "name": "MATH 2710: Calculus III (CNM)",
          "crucial": false,
          "min_grade": "C",
          "credits": 4,
          "courses": [
            {
              "number": "MATH 264",
              "title": "Calculus III"
            }
          ]
        },
        {
          "name": "PHYC 2710: Physics for Scientists and Engineers III (CNM)",
          "crucial": false,
          "min_grade": "C",
          "credits": 4,
          "courses": [
            {
              "number": "PHYC 262",
              "title": "General Physics"
            },
            {
              "number": "PHYC 262L",
              "title": "General Physics Lab"
            }
          ]
        },
        {
          "name": "CSCI 1151: Introduction to Programming for Non-Computer Science Majors or CSCI 1152: Introduction to Programming for Computer Science Majors or CSCI 1153: Programming in Matlab (CNM)",
          "crucial": false,
          "min_grade": "C",
          "credits": 4,
          "courses": [
            {
              "number": "CS 151L",
              "title": "Programming Fund Nonmajors"
            },
            {
              "number": "CS 152L",
              "title": "Comp Program Fund CS Major"
            },
            {
              "number": "ECE 131",
              "title": "Programming Fundamentals"
            }
          ]
        },
        {
          "name": "Humanities (CNM)",
          "crucial": false,
          "min_grade": "C",
          "credits": 3,
          "courses": [

          ]
        },
        {
          "name": "Social/Behavioral Science (CNM)",
          "crucial": false,
          "min_grade": "C",
          "credits": 3,
          "courses": [

          ]
        }
      ]
    },
    {
      "requirements": [
        {
          "name": "PHYC 330: Introduction to Modern Physics",
          "crucial": false,
          "min_grade": "C",
          "credits": 3,
          "courses": [
            {
              "number": "PHYC 330",
              "title": "Intro Modern Physics"
            }
          ]
        },
        {
          "name": "PHYC 331: Problems in Introduction to Modern Physics",
          "crucial": false,
          "min_grade": "CR",
          "credits": 1,
          "courses": [
            {
              "number": "PHYC 331",
              "title": "Problems in Modern Physics"
            }
          ]
        },
        {
          "name": "MATH 316: Applied Ordinary Differential Equations",
          "crucial": false,
          "min_grade": "C",
          "credits": 3,
          "courses": [
            {
              "number": "MATH 316",
              "title": "Applied Ordinary Diff Equas"
            }
          ]
        },
        {
          "name": "PHYC 290: Computational Physics",
          "crucial": false,
          "min_grade": "C",
          "credits": 3,
          "courses": [
            {
              "number": "PHYC 290",
              "title": "Computational Physics"
            }
          ]
        },
        {
          "name": "Foreign Language Core Course",
          "crucial": false,
          "min_grade": "C",
          "credits": 3,
          "courses": [

          ]
        }
      ]
    },
    {
      "requirements": [
        {
          "name": "PHYC 303: Analytical Mechanics I",
          "crucial": false,
          "min_grade": "C",
          "credits": 3,
          "courses": [
            {
              "number": "PHYC 303",
              "title": "Analytical Mechanics"
            }
          ]
        },
        {
          "name": "PHYC 313: Problems in Analytical Mechanics I",
          "crucial": false,
          "min_grade": "CR",
          "credits": 1,
          "courses": [
            {
              "number": "PHYC 313",
              "title": "Prob Analytical Mechanics I"
            }
          ]
        },
        {
          "name": "PHYC 301: Thermodynamics and Statistical Mechanics",
          "crucial": false,
          "min_grade": "C",
          "credits": 3,
          "courses": [
            {
              "number": "PHYC 301",
              "title": "Thermodynamics & Stat Mech"
            }
          ]
        },
        {
          "name": "PHYC 311: Problems in Thermodynamics and Statistical Mechanics",
          "crucial": false,
          "min_grade": "CR",
          "credits": 1,
          "courses": [
            {
              "number": "PHYC 311",
              "title": "Prob Thermo & Stat Mechanics"
            }
          ]
        },
        {
          "name": "PHYC 307L: Junior Laboratory",
          "crucial": false,
          "min_grade": "C",
          "credits": 3,
          "courses": [
            {
              "number": "PHYC 307L",
              "title": "Junior Laboratory"
            }
          ]
        },
        {
          "name": "PHYC 366: Mathematical Methods of Physics",
          "crucial": false,
          "min_grade": "C",
          "credits": 4,
          "courses": [
            {
              "number": "PHYC 366",
              "title": "Mathematical Methods of Physics"
            }
          ]
        }
      ]
    },
    {
      "requirements": [
        {
          "name": "PHYC 304: Analytical Mechanics II",
          "crucial": false,
          "min_grade": "C",
          "credits": 3,
          "courses": [
            {
              "number": "PHYC 304",
              "title": "Analytical Mechanics"
            }
          ]
        },
        {
          "name": "PHYC 314: Aproblems in Analytical Mechanics II",
          "crucial": false,
          "min_grade": "CR",
          "credits": 1,
          "courses": [
            {
              "number": "PHYC 314",
              "title": "Prob Analytical Mechanics II"
            }
          ]
        },
        {
          "name": "PHYC 308L: Junior Laboratory",
          "crucial": false,
          "min_grade": "C",
          "credits": 3,
          "courses": [
            {
              "number": "PHYC 308L",
              "title": "Junior Laboratory"
            }
          ]
        },
        {
          "name": "MATH 314: Linear Algebra with Applications",
          "crucial": false,
          "min_grade": "C",
          "credits": 3,
          "courses": [
            {
              "number": "MATH 314",
              "title": "Linear Algebra with Apps"
            }
          ]
        },
        {
          "name": "PHYC 405: Electricity and Magnetism I",
          "crucial": false,
          "min_grade": "C",
          "credits": 3,
          "courses": [
            {
              "number": "PHYC 405",
              "title": "Electricity & Magnetism I"
            }
          ]
        },
        {
          "name": "PHYC 415: Problems in Electricity and Magnetism I",
          "crucial": false,
          "min_grade": "CR",
          "credits": 1,
          "courses": [
            {
              "number": "PHYC 415",
              "title": "Problems in E&M I"
            }
          ]
        }
      ]
    },
    {
      "requirements": [
        {
          "name": "PHYC 406: Electricity and Magnetism II",
          "crucial": false,
          "min_grade": "C",
          "credits": 3,
          "courses": [
            {
              "number": "PHYC 406",
              "title": "Electricity & Magnetism II"
            }
          ]
        },
        {
          "name": "PHYC 416:  Problems in Electricity and Magnetism II",
          "crucial": false,
          "min_grade": "CR",
          "credits": 1,
          "courses": [
            {
              "number": "PHYC 416",
              "title": "Problems in E&M II"
            }
          ]
        },
        {
          "name": "PHYC 491: Intermediate Quantum Mechanics I",
          "crucial": false,
          "min_grade": "C",
          "credits": 3,
          "courses": [
            {
              "number": "PHYC 491",
              "title": "Inter Quantum Mechanics I"
            }
          ]
        },
        {
          "name": "PhHYC 496: Problems in Intermediate Quantum Mechanics I",
          "crucial": false,
          "min_grade": "CR",
          "credits": 1,
          "courses": [

          ]
        }
      ]
    },
    {
      "requirements": [
        {
          "name": "PhHYC 493L:  Contemporary Physics Laboratory",
          "crucial": false,
          "min_grade": "C",
          "credits": 3,
          "courses": [

          ]
        },
        {
          "name": "PHYC 492: Intermediate Quantum Mechanics II",
          "crucial": false,
          "min_grade": "C",
          "credits": 3,
          "courses": [
            {
              "number": "PHYC 492",
              "title": "Inter Quantum Mechanics II"
            }
          ]
        },
        {
          "name": "PHYC 497: Problems in Intermediate Quantum Mechanics II",
          "crucial": false,
          "min_grade": "CR",
          "credits": 1,
          "courses": [
            {
              "number": "PHYC 497",
              "title": "Prob Intermed Quatum Mech II"
            }
          ]
        },
        {
          "name": "Physics Elective",
          "crucial": false,
          "min_grade": "C",
          "credits": 3,
          "courses": [

          ]
        }
      ]
    }
  ]
}