{
  "name": "Portuguese",
  "degree_type": "For Spanish Speakers",
  "degree_awarded": "BA",
  "notes": [
    {
      "note": "Minimum graduation GPA = 2.00. Keep in mind that minimum grades on road map are for individual coursework only. Students must maintain a minimum of a 2.0 cumulative GPA for admisssion to and graduation from the College of Art & Science."
    },
    {
      "note": "NOTE 1: Intensive Language courses:  275 = 101 and 102 in one course (6 cr.hrs.);  276 = 201 and 202 in one course  (6 cr. hrs) Credit is only awarded for 101 and 102  OR 275, not all 3 courses - also - credit is only awarded for 201 and 202 OR 276"
    },
    {
      "note": "NOTE 2: PORT 102 is a one semester introduction to Portuguese for Spanish Speakers, as well as, the 2nd semester sequence for non-Spanish speaking students."
    },
    {
      "note": "NOTE 3: Portuguese 277  ( 6 cr. hrs.) is an acceclerated course for Spanish speakers with strong language skills. It is the equivalent of covering PORT 101, 102 & 276 in one semester."
    },
    {
      "note": "NOTE 4: At least 2 of these 3 courses are required for Portuguese majors.  All 3 may be taken and applied toward Port. Major"
    },
    {
      "note": "NOTE 5: Third Language credit hours may be applied to minor or second major requirements. The major requires demonstrated 202 skill level which may be established by either a Foreign Language Proficiency test administered by a faculty member, or by taking  the necessary language courses.  Due to the similarities between the two languages, Spanish is a recommended third language. Knowing both Spansih and Portuguese increases available job opportunities."
    }
  ],
  "terms": [
    {
      "requirements": [
        {
          "name": "PORT 102: Elementary Portuguese II OR PORT 277: Intensive Portuguese for Spanish Speakers (6cr)",
          "crucial": false,
          "min_grade": "C",
          "credits": 3,
          "courses": [
            {
              "number": "PORT 102",
              "title": "Elementary Portuguese II"
            },
            {
              "number": "PORT 277",
              "title": "Intens Port for Span Speakers"
            }
          ]
        },
        {
          "name": "ENGL 110: Accelerated Composition or ENGL 111: Composition I and ENGL 112: Composition II or ENGL 113: Enhanced Composition",
          "crucial": false,
          "min_grade": "C",
          "credits": 3,
          "courses": [

          ]
        },
        {
          "name": "Freshman Academic Choice",
          "crucial": false,
          "min_grade": "D-",
          "credits": 3,
          "courses": [

          ]
        },
        {
          "name": "Core Math",
          "crucial": false,
          "min_grade": "C",
          "credits": 3,
          "courses": [

          ]
        },
        {
          "name": "Social Behavioral Science",
          "crucial": false,
          "min_grade": "C",
          "credits": 3,
          "courses": [

          ]
        }
      ]
    },
    {
      "requirements": [
        {
          "name": "PORT 276: Intensive Intermediate Portuguese (if not taking PORT 277)",
          "crucial": false,
          "min_grade": "C",
          "credits": 6,
          "courses": [
            {
              "number": "PORT 276",
              "title": "Intensive Inter Portuguese"
            }
          ]
        },
        {
          "name": "ENGL 120: Composition III",
          "crucial": false,
          "min_grade": "C",
          "credits": 3,
          "courses": [

          ]
        },
        {
          "name": "Physical and Natural Science",
          "crucial": false,
          "min_grade": "C",
          "credits": 3,
          "courses": [

          ]
        },
        {
          "name": "Minor or 2nd Major Requirement",
          "crucial": false,
          "min_grade": "C",
          "credits": 3,
          "courses": [

          ]
        }
      ]
    },
    {
      "requirements": [
        {
          "name": "PORT 301: Conversation and Pronunciation or PORT 311: Culture and Composition or PORT 312: Culture and Conversation",
          "crucial": false,
          "min_grade": "C",
          "credits": 3,
          "courses": [
            {
              "number": "PORT 301",
              "title": "Conversation and Pronunciation"
            },
            {
              "number": "PORT 311",
              "title": "Culture & Composition"
            },
            {
              "number": "PORT 312",
              "title": "Culture & Conversation"
            }
          ]
        },
        {
          "name": "PORT 301: Conversation and Pronunciation or PORT 311: Culture and Composition or PORT 312: Culture and Conversation",
          "crucial": false,
          "min_grade": "C",
          "credits": 3,
          "courses": [
            {
              "number": "PORT 301",
              "title": "Conversation and Pronunciation"
            },
            {
              "number": "PORT 311",
              "title": "Culture & Composition"
            },
            {
              "number": "PORT 312",
              "title": "Culture & Conversation"
            }
          ]
        },
        {
          "name": "Minor or 2nd Major Requirement",
          "crucial": false,
          "min_grade": "C",
          "credits": 3,
          "courses": [

          ]
        },
        {
          "name": "ENGL 290 or ENGL 219 or ENGL 220 or CJ 130",
          "crucial": false,
          "min_grade": "C",
          "credits": 3,
          "courses": [
            {
              "number": "CJ 130",
              "title": "Public Speaking"
            },
            {
              "number": "ENGL 219",
              "title": "Tech & Professional Writing"
            },
            {
              "number": "ENGL 220",
              "title": "Expository Writing"
            },
            {
              "number": "ENGL 290",
              "title": "Intro to Professional Writing"
            }
          ]
        },
        {
          "name": "Social Behavioral Science",
          "crucial": false,
          "min_grade": "C",
          "credits": 3,
          "courses": [

          ]
        }
      ]
    },
    {
      "requirements": [
        {
          "name": "PORT elective (300 or 400 level)",
          "crucial": false,
          "min_grade": "C",
          "credits": 3,
          "courses": [

          ]
        },
        {
          "name": "PORT elective (300 or 400 level)",
          "crucial": false,
          "min_grade": "C",
          "credits": 3,
          "courses": [

          ]
        },
        {
          "name": "3rd Language 101 or 175/275 Accelerated Elementary Language (6 cr)",
          "crucial": false,
          "min_grade": "C",
          "credits": 3,
          "courses": [

          ]
        },
        {
          "name": "Minor or 2nd Major Requirement",
          "crucial": false,
          "min_grade": "C",
          "credits": 3,
          "courses": [

          ]
        },
        {
          "name": "Humanities",
          "crucial": false,
          "min_grade": "C",
          "credits": 3,
          "courses": [

          ]
        }
      ]
    },
    {
      "requirements": [
        {
          "name": "PORT elective (300 or 400 level)",
          "crucial": false,
          "min_grade": "C",
          "credits": 3,
          "courses": [

          ]
        },
        {
          "name": "PORT elective (300 or 400 level)",
          "crucial": false,
          "min_grade": "C",
          "credits": 3,
          "courses": [

          ]
        },
        {
          "name": "3rd Language 102 (if not taking 175/275 Accelerated Elementary Language)",
          "crucial": false,
          "min_grade": "C",
          "credits": 3,
          "courses": [

          ]
        },
        {
          "name": "Minor or 2nd Major Requirement",
          "crucial": false,
          "min_grade": "C",
          "credits": 3,
          "courses": [

          ]
        },
        {
          "name": "Core Requirement",
          "crucial": false,
          "min_grade": "C",
          "credits": 3,
          "courses": [

          ]
        }
      ]
    },
    {
      "requirements": [
        {
          "name": "PORT elective (300 or 400 level)",
          "crucial": false,
          "min_grade": "C",
          "credits": 3,
          "courses": [

          ]
        },
        {
          "name": "PORT elective (300 or 400 level)",
          "crucial": false,
          "min_grade": "C",
          "credits": 3,
          "courses": [

          ]
        },
        {
          "name": "3rd Language 201 or 276: Accelerated Intermediate Language (6 cr)",
          "crucial": false,
          "min_grade": "C",
          "credits": 3,
          "courses": [

          ]
        },
        {
          "name": "Fine Arts",
          "crucial": false,
          "min_grade": "C",
          "credits": 3,
          "courses": [

          ]
        },
        {
          "name": "Minor or 2nd Major Requirement",
          "crucial": false,
          "min_grade": "C",
          "credits": 3,
          "courses": [

          ]
        }
      ]
    },
    {
      "requirements": [
        {
          "name": "3rd Language 202 (if not taking 276: Accelerated Intermediate Language)",
          "crucial": false,
          "min_grade": "C",
          "credits": 3,
          "courses": [

          ]
        },
        {
          "name": "Physical & Natural Sciences",
          "crucial": false,
          "min_grade": "C",
          "credits": 4,
          "courses": [

          ]
        },
        {
          "name": "Minor or 2nd Major Requirement",
          "crucial": false,
          "min_grade": "C",
          "credits": 3,
          "courses": [

          ]
        },
        {
          "name": "Minor or 2nd Major Requirement",
          "crucial": false,
          "min_grade": "C",
          "credits": 3,
          "courses": [

          ]
        },
        {
          "name": "Elective Any Level",
          "crucial": false,
          "min_grade": "D-",
          "credits": 2,
          "courses": [

          ]
        }
      ]
    },
    {
      "requirements": [
        {
          "name": "Upper Division Elective",
          "crucial": false,
          "min_grade": "D-",
          "credits": 3,
          "courses": [

          ]
        },
        {
          "name": "Elective Any Level",
          "crucial": false,
          "min_grade": "D-",
          "credits": 3,
          "courses": [

          ]
        },
        {
          "name": "Elective Any Level",
          "crucial": false,
          "min_grade": "D-",
          "credits": 3,
          "courses": [

          ]
        },
        {
          "name": "Minor or 2nd Major Requirement",
          "crucial": false,
          "min_grade": "C",
          "credits": 3,
          "courses": [

          ]
        },
        {
          "name": "Elective Any Level",
          "crucial": false,
          "min_grade": "D-",
          "credits": 3,
          "courses": [

          ]
        }
      ]
    }
  ]
}