{
  "name": "Psychology",
  "degree_type": "4 Year Plan",
  "degree_awarded": "BS",
  "notes": [
    {
      "note": "Minimum graduation GPA = 2.00. Keep in mind that minimum grades on road map are for individual coursework only. Students must maintain a minimum of a 2.0 cumulative GPA for admisssion to and graduation from the College of Art & Science."
    }
  ],
  "terms": [
    {
      "requirements": [
        {
          "name": "PSY 105: General Psychology",
          "crucial": false,
          "min_grade": "C",
          "credits": 3,
          "courses": [
            {
              "number": "PSY 105",
              "title": "General Psychology"
            }
          ]
        },
        {
          "name": "ENGL 110: Accelerated Composition or ENGL 111: Composition I and ENGL 112: Composition II or ENGL 113: Enhanced Composition",
          "crucial": false,
          "min_grade": "C",
          "credits": 3,
          "courses": [

          ]
        },
        {
          "name": "Freshman Academic Choice",
          "crucial": false,
          "min_grade": "C",
          "credits": 3,
          "courses": [

          ]
        },
        {
          "name": "Mathematics Core Course",
          "crucial": false,
          "min_grade": "C",
          "credits": 3,
          "courses": [

          ]
        },
        {
          "name": "Core Course",
          "crucial": false,
          "min_grade": "C",
          "credits": 3,
          "courses": [

          ]
        }
      ]
    },
    {
      "requirements": [
        {
          "name": "PSY 220 or PSY 240 or PSY 260 or PSY 265 or PSY 271 or PSY 280",
          "crucial": false,
          "min_grade": "C",
          "credits": 3,
          "courses": [
            {
              "number": "PSY 220",
              "title": "Developmental Psychology"
            },
            {
              "number": "PSY 240",
              "title": "Brain & Behavior"
            },
            {
              "number": "PSY 260",
              "title": "Psych of Learning & Memory"
            },
            {
              "number": "PSY 265",
              "title": "Cognitive Psychology"
            },
            {
              "number": "PSY 271",
              "title": "Social Psychology"
            },
            {
              "number": "PSY 280",
              "title": "Health Psychology"
            }
          ]
        },
        {
          "name": "PSY 220 or PSY 240 or PSY 260 or PSY 265 or PSY 271 or PSY 280",
          "crucial": false,
          "min_grade": "C",
          "credits": 3,
          "courses": [
            {
              "number": "PSY 220",
              "title": "Developmental Psychology"
            },
            {
              "number": "PSY 240",
              "title": "Brain & Behavior"
            },
            {
              "number": "PSY 260",
              "title": "Psych of Learning & Memory"
            },
            {
              "number": "PSY 265",
              "title": "Cognitive Psychology"
            },
            {
              "number": "PSY 271",
              "title": "Social Psychology"
            },
            {
              "number": "PSY 280",
              "title": "Health Psychology"
            }
          ]
        },
        {
          "name": "Core Course",
          "crucial": false,
          "min_grade": "C",
          "credits": 3,
          "courses": [

          ]
        },
        {
          "name": "ENGL 120: Composition III",
          "crucial": false,
          "min_grade": "C",
          "credits": 3,
          "courses": [

          ]
        },
        {
          "name": "Core Course",
          "crucial": false,
          "min_grade": "C",
          "credits": 3,
          "courses": [

          ]
        }
      ]
    },
    {
      "requirements": [
        {
          "name": "PSY 200: Statistical Principles",
          "crucial": false,
          "min_grade": "C",
          "credits": 3,
          "courses": [
            {
              "number": "PSY 200",
              "title": "Statistical Principles"
            }
          ]
        },
        {
          "name": "PSY 220 or PSY 240 or PSY 260 or PSY 265 or PSY 271 or PSY 280",
          "crucial": false,
          "min_grade": "C",
          "credits": 3,
          "courses": [
            {
              "number": "PSY 220",
              "title": "Developmental Psychology"
            },
            {
              "number": "PSY 240",
              "title": "Brain & Behavior"
            },
            {
              "number": "PSY 260",
              "title": "Psych of Learning & Memory"
            },
            {
              "number": "PSY 265",
              "title": "Cognitive Psychology"
            },
            {
              "number": "PSY 271",
              "title": "Social Psychology"
            },
            {
              "number": "PSY 280",
              "title": "Health Psychology"
            }
          ]
        },
        {
          "name": "Minor or 2nd Major Requirement",
          "crucial": false,
          "min_grade": "C",
          "credits": 3,
          "courses": [

          ]
        },
        {
          "name": "CJ 130: Public Speaking or PHIL 156: Reasoning & Critical Thinking",
          "crucial": false,
          "min_grade": "C",
          "credits": 3,
          "courses": [
            {
              "number": "CJ 130",
              "title": "Public Speaking"
            },
            {
              "number": "PHIL 156",
              "title": "Reasoning & Critical Thinking"
            }
          ]
        },
        {
          "name": "Core Course",
          "crucial": false,
          "min_grade": "C",
          "credits": 3,
          "courses": [

          ]
        }
      ]
    },
    {
      "requirements": [
        {
          "name": "PSY 220 or PSY 240 or PSY 260 or PSY 265 or PSY 271 or PSY 280",
          "crucial": false,
          "min_grade": "C",
          "credits": 3,
          "courses": [
            {
              "number": "PSY 220",
              "title": "Developmental Psychology"
            },
            {
              "number": "PSY 240",
              "title": "Brain & Behavior"
            },
            {
              "number": "PSY 260",
              "title": "Psych of Learning & Memory"
            },
            {
              "number": "PSY 265",
              "title": "Cognitive Psychology"
            },
            {
              "number": "PSY 271",
              "title": "Social Psychology"
            },
            {
              "number": "PSY 280",
              "title": "Health Psychology"
            }
          ]
        },
        {
          "name": "PSY 302: Psychological Research Techniques",
          "crucial": false,
          "min_grade": "C",
          "credits": 3,
          "courses": [
            {
              "number": "PSY 302",
              "title": "Psychology Research Techniques"
            }
          ]
        },
        {
          "name": "Minor or 2nd Major Requirement",
          "crucial": false,
          "min_grade": "C",
          "credits": 3,
          "courses": [

          ]
        },
        {
          "name": "Minor or 2nd Major Requirement",
          "crucial": false,
          "min_grade": "C",
          "credits": 3,
          "courses": [

          ]
        },
        {
          "name": "Core Course",
          "crucial": false,
          "min_grade": "C",
          "credits": 3,
          "courses": [

          ]
        }
      ]
    },
    {
      "requirements": [
        {
          "name": "PSY 3XX or 4XX",
          "crucial": false,
          "min_grade": "C",
          "credits": 3,
          "courses": [

          ]
        },
        {
          "name": "PSY 3XX or 4XX",
          "crucial": false,
          "min_grade": "C",
          "credits": 3,
          "courses": [

          ]
        },
        {
          "name": "Minor or 2nd Major Requirement",
          "crucial": false,
          "min_grade": "C",
          "credits": 3,
          "courses": [

          ]
        },
        {
          "name": "Upper Division Elective",
          "crucial": false,
          "min_grade": "C",
          "credits": 3,
          "courses": [

          ]
        },
        {
          "name": "Core Course",
          "crucial": false,
          "min_grade": "C",
          "credits": 3,
          "courses": [

          ]
        }
      ]
    },
    {
      "requirements": [
        {
          "name": "PSY 3XX or 4XX",
          "crucial": false,
          "min_grade": "C",
          "credits": 3,
          "courses": [

          ]
        },
        {
          "name": "PSY 3XX or 4XX",
          "crucial": false,
          "min_grade": "C",
          "credits": 3,
          "courses": [

          ]
        },
        {
          "name": "Upper Division Psychology Lab",
          "crucial": false,
          "min_grade": "C",
          "credits": 2,
          "courses": [

          ]
        },
        {
          "name": "Physical and Natural Science Core Course",
          "crucial": false,
          "min_grade": "C",
          "credits": 4,
          "courses": [

          ]
        },
        {
          "name": "Minor or 2nd Major Requirement",
          "crucial": false,
          "min_grade": "C",
          "credits": 3,
          "courses": [

          ]
        }
      ]
    },
    {
      "requirements": [
        {
          "name": "Minor or 2nd Major Requirement",
          "crucial": false,
          "min_grade": "C",
          "credits": 3,
          "courses": [

          ]
        },
        {
          "name": "Upper Division Elective",
          "crucial": false,
          "min_grade": "C",
          "credits": 3,
          "courses": [

          ]
        },
        {
          "name": "Upper Division Elective",
          "crucial": false,
          "min_grade": "C",
          "credits": 3,
          "courses": [

          ]
        },
        {
          "name": "Upper Division Elective",
          "crucial": false,
          "min_grade": "C",
          "credits": 3,
          "courses": [

          ]
        },
        {
          "name": "Upper Division Elective",
          "crucial": false,
          "min_grade": "C",
          "credits": 3,
          "courses": [

          ]
        }
      ]
    },
    {
      "requirements": [
        {
          "name": "Minor or 2nd Major Requirement",
          "crucial": false,
          "min_grade": "C",
          "credits": 3,
          "courses": [

          ]
        },
        {
          "name": "Upper Division Elective",
          "crucial": false,
          "min_grade": "C",
          "credits": 3,
          "courses": [

          ]
        },
        {
          "name": "Elective Any Level",
          "crucial": false,
          "min_grade": "C",
          "credits": 3,
          "courses": [

          ]
        },
        {
          "name": "Elective Any Level",
          "crucial": false,
          "min_grade": "C",
          "credits": 3,
          "courses": [

          ]
        },
        {
          "name": "Elective Any Level",
          "crucial": false,
          "min_grade": "C",
          "credits": 3,
          "courses": [

          ]
        }
      ]
    }
  ]
}