{
  "name": "Women Studies",
  "degree_type": "4 Year Plan",
  "degree_awarded": "BA",
  "notes": [
    {
      "note": "Minimum graduation GPA = 2.00. Keep in mind that minimum grades on road map are for individual coursework only. Students must maintain a minimum of a 2.0 cumulative GPA for admisssion to and graduation from the College of Art & Science."
    },
    {
      "note": "9 credit hours in one focus area: (Feminist and Gender Theory, Social Science, Literature/Film/Arts, Regional/Global, Sexualities). History courses taken to fulfill core requirements may not be used to fulfill requirements for the focus areas."
    },
    {
      "note": "9 credit hours in at least 2 additional focus areas: (Feminist and Gender Theory, Social Science, Literature/Film/Arts, Regional/Global, Sexualities). History courses taken to fulfill core requirements may not be used to fulfill requirements for the focus areas. See Program Director or Web site for current list of approved electives."
    }
  ],
  "terms": [
    {
      "requirements": [
        {
          "name": "WMST 200: Introduction to Women Studies",
          "crucial": false,
          "min_grade": "C",
          "credits": 3,
          "courses": [
            {
              "number": "WMST 200",
              "title": "Wom Social & Hist Perspectives"
            }
          ]
        },
        {
          "name": "ENGL 110: Accelerated Composition or ENGL 111: Composition I and ENGL 112: Composition II or ENGL 113: Enhanced Composition",
          "crucial": false,
          "min_grade": "C",
          "credits": 3,
          "courses": [

          ]
        },
        {
          "name": "Freshman Academic Choice",
          "crucial": false,
          "min_grade": "D-",
          "credits": 3,
          "courses": [

          ]
        },
        {
          "name": "MATH",
          "crucial": false,
          "min_grade": "C",
          "credits": 3,
          "courses": [

          ]
        },
        {
          "name": "Second Language",
          "crucial": false,
          "min_grade": "C",
          "credits": 3,
          "courses": [

          ]
        }
      ]
    },
    {
      "requirements": [
        {
          "name": "WMST 298: Writing/Research Laboratory",
          "crucial": false,
          "min_grade": "C",
          "credits": 1,
          "courses": [

          ]
        },
        {
          "name": "ENGL 120: Composition III",
          "crucial": false,
          "min_grade": "C",
          "credits": 3,
          "courses": [

          ]
        },
        {
          "name": "Physical and Natural Science",
          "crucial": false,
          "min_grade": "C",
          "credits": 4,
          "courses": [

          ]
        },
        {
          "name": "Minor or 2nd Major Requirement",
          "crucial": false,
          "min_grade": "C",
          "credits": 3,
          "courses": [

          ]
        },
        {
          "name": "Elective any level",
          "crucial": false,
          "min_grade": "C",
          "credits": 3,
          "courses": [

          ]
        }
      ]
    },
    {
      "requirements": [
        {
          "name": "WMST 304: Feminist Theories: Identity, Knowledge, and Power",
          "crucial": false,
          "min_grade": "C",
          "credits": 3,
          "courses": [
            {
              "number": "WMST 304",
              "title": "Feminist Theories"
            }
          ]
        },
        {
          "name": "Women Studies History Course",
          "crucial": false,
          "min_grade": "C",
          "credits": 3,
          "courses": [
            {
              "number": "HIST 320",
              "title": "Women: Ancient to Modern"
            },
            {
              "number": "HIST 321",
              "title": "Women in the Modern World"
            },
            {
              "number": "HIST 345",
              "title": "US Women since 1865"
            },
            {
              "number": "HIST 428",
              "title": "Women War & Revolution"
            },
            {
              "number": "HIST 462",
              "title": "Women in the US West"
            },
            {
              "number": "HIST 471",
              "title": "Women in Early Latin America"
            },
            {
              "number": "HIST 472",
              "title": "Women in Modern Latin America"
            }
          ]
        },
        {
          "name": "Minor or 2nd Major Requirement",
          "crucial": false,
          "min_grade": "C",
          "credits": 3,
          "courses": [

          ]
        },
        {
          "name": "CJ 130 or PHIL 156 or ENGL 219 or ENGL 220",
          "crucial": false,
          "min_grade": "C",
          "credits": 3,
          "courses": [
            {
              "number": "CJ 130",
              "title": "Public Speaking"
            },
            {
              "number": "ENGL 219",
              "title": "Tech & Professional Writing"
            },
            {
              "number": "ENGL 220",
              "title": "Expository Writing"
            },
            {
              "number": "PHIL 156",
              "title": "Reasoning & Critical Thinking"
            }
          ]
        },
        {
          "name": "Social Behavioral Science",
          "crucial": false,
          "min_grade": "C",
          "credits": 3,
          "courses": [

          ]
        }
      ]
    },
    {
      "requirements": [
        {
          "name": "WMST 325: Race, Class and Feminism",
          "crucial": false,
          "min_grade": "C",
          "credits": 3,
          "courses": [
            {
              "number": "WMST 325",
              "title": "Race Class & Feminism"
            }
          ]
        },
        {
          "name": "Women Studies Focus Area",
          "crucial": false,
          "min_grade": "C",
          "credits": 3,
          "courses": [

          ]
        },
        {
          "name": "Women Studies Elective",
          "crucial": false,
          "min_grade": "C",
          "credits": 3,
          "courses": [

          ]
        },
        {
          "name": "Minor or 2nd Major Requirement",
          "crucial": false,
          "min_grade": "C",
          "credits": 3,
          "courses": [

          ]
        },
        {
          "name": "Humanities",
          "crucial": false,
          "min_grade": "C",
          "credits": 3,
          "courses": [

          ]
        }
      ]
    },
    {
      "requirements": [
        {
          "name": "Women Studies Focus Area",
          "crucial": false,
          "min_grade": "C",
          "credits": 3,
          "courses": [

          ]
        },
        {
          "name": "Social Behavioral Science",
          "crucial": false,
          "min_grade": "C",
          "credits": 3,
          "courses": [

          ]
        },
        {
          "name": "Fine Arts",
          "crucial": false,
          "min_grade": "C",
          "credits": 3,
          "courses": [

          ]
        },
        {
          "name": "Minor or 2nd Major Requirement",
          "crucial": false,
          "min_grade": "C",
          "credits": 3,
          "courses": [

          ]
        },
        {
          "name": "Upper Division Elective",
          "crucial": false,
          "min_grade": "D-",
          "credits": 3,
          "courses": [

          ]
        }
      ]
    },
    {
      "requirements": [
        {
          "name": "Women Studies Focus Area",
          "crucial": false,
          "min_grade": "C",
          "credits": 3,
          "courses": [

          ]
        },
        {
          "name": "Women Studies Elective",
          "crucial": false,
          "min_grade": "C",
          "credits": 3,
          "courses": [

          ]
        },
        {
          "name": "Humanities",
          "crucial": false,
          "min_grade": "C",
          "credits": 3,
          "courses": [

          ]
        },
        {
          "name": "Minor or 2nd Major Requirement",
          "crucial": false,
          "min_grade": "C",
          "credits": 3,
          "courses": [

          ]
        },
        {
          "name": "Upper Division Elective",
          "crucial": false,
          "min_grade": "D-",
          "credits": 3,
          "courses": [

          ]
        },
        {
          "name": "Physical and Natural Science",
          "crucial": false,
          "min_grade": "C",
          "credits": 3,
          "courses": [

          ]
        }
      ]
    },
    {
      "requirements": [
        {
          "name": "WMST 492: Senior Seminar",
          "crucial": false,
          "min_grade": "C",
          "credits": 3,
          "courses": [
            {
              "number": "WMST 492",
              "title": "Senior Seminar"
            }
          ]
        },
        {
          "name": "Minor or 2nd Major Requirement",
          "crucial": false,
          "min_grade": "C",
          "credits": 3,
          "courses": [

          ]
        },
        {
          "name": "Elective any level",
          "crucial": false,
          "min_grade": "D-",
          "credits": 1,
          "courses": [

          ]
        },
        {
          "name": "2nd Major or Elective any level",
          "crucial": false,
          "min_grade": "C",
          "credits": 3,
          "courses": [

          ]
        },
        {
          "name": "2nd Major or Upper Division Elective",
          "crucial": false,
          "min_grade": "C",
          "credits": 1,
          "courses": [

          ]
        },
        {
          "name": "2nd Major or Upper Division Elective",
          "crucial": false,
          "min_grade": "C",
          "credits": 3,
          "courses": [

          ]
        }
      ]
    },
    {
      "requirements": [
        {
          "name": "WMST 498: Feminism in Action",
          "crucial": false,
          "min_grade": "C",
          "credits": 2,
          "courses": [
            {
              "number": "WMST 498",
              "title": "Field Experience"
            }
          ]
        },
        {
          "name": "Women Studies Elective",
          "crucial": false,
          "min_grade": "C",
          "credits": 3,
          "courses": [

          ]
        },
        {
          "name": "Upper Division Elective",
          "crucial": false,
          "min_grade": "D-",
          "credits": 3,
          "courses": [

          ]
        },
        {
          "name": "2nd Major or Upper Division Elective",
          "crucial": false,
          "min_grade": "C",
          "credits": 3,
          "courses": [

          ]
        },
        {
          "name": "2nd Major or Upper Division Elective",
          "crucial": false,
          "min_grade": "C",
          "credits": 3,
          "courses": [

          ]
        }
      ]
    }
  ]
}